%YAML 1.1
%TAG !u! tag:unity3d.com,2011:
--- !u!74 &7400000
AnimationClip:
  m_ObjectHideFlags: 0
  m_CorrespondingSourceObject: {fileID: 0}
  m_PrefabInstance: {fileID: 0}
  m_PrefabAsset: {fileID: 0}
  m_Name: Idle
  serializedVersion: 6
  m_Legacy: 0
  m_Compressed: 0
  m_UseHighQualityCurve: 1
  m_RotationCurves:
  - curve:
      serializedVersion: 2
      m_Curve:
      - serializedVersion: 3
        time: 0
        value: {x: 0, y: -0, z: -0, w: 1}
        inSlope: {x: 0, y: 0, z: 0, w: 0}
        outSlope: {x: 0, y: 0, z: 0, w: 0}
        tangentMode: 0
        weightedMode: 0
        inWeight: {x: 0.33333334, y: 0.33333334, z: 0.33333334, w: 0.33333334}
        outWeight: {x: 0.33333334, y: 0.33333334, z: 0.33333334, w: 0.33333334}
      - serializedVersion: 3
        time: 1.9583333
        value: {x: 0, y: -0, z: -0, w: 1}
        inSlope: {x: 0, y: 0, z: 0, w: 0}
        outSlope: {x: 0, y: 0, z: 0, w: 0}
        tangentMode: 0
        weightedMode: 0
        inWeight: {x: 0.33333334, y: 0.33333334, z: 0.33333334, w: 0.33333334}
        outWeight: {x: 0.33333334, y: 0.33333334, z: 0.33333334, w: 0.33333334}
      m_PreInfinity: 2
      m_PostInfinity: 2
      m_RotationOrder: 4
    path: World_Ctrl
  - curve:
      serializedVersion: 2
      m_Curve:
      - serializedVersion: 3
        time: 0
        value: {x: 0, y: -0, z: -0, w: 1}
        inSlope: {x: 0, y: 0, z: 0, w: 0}
        outSlope: {x: 0, y: 0, z: 0, w: 0}
        tangentMode: 0
        weightedMode: 0
        inWeight: {x: 0.33333334, y: 0.33333334, z: 0.33333334, w: 0.33333334}
        outWeight: {x: 0.33333334, y: 0.33333334, z: 0.33333334, w: 0.33333334}
      - serializedVersion: 3
        time: 1.9583333
        value: {x: 0, y: -0, z: -0, w: 1}
        inSlope: {x: 0, y: 0, z: 0, w: 0}
        outSlope: {x: 0, y: 0, z: 0, w: 0}
        tangentMode: 0
        weightedMode: 0
        inWeight: {x: 0.33333334, y: 0.33333334, z: 0.33333334, w: 0.33333334}
        outWeight: {x: 0.33333334, y: 0.33333334, z: 0.33333334, w: 0.33333334}
      m_PreInfinity: 2
      m_PostInfinity: 2
      m_RotationOrder: 4
    path: World_Ctrl/Leg_Ctrl
  - curve:
      serializedVersion: 2
      m_Curve:
      - serializedVersion: 3
        time: 0
        value: {x: 0, y: -0, z: -0.13313967, w: 0.9910973}
        inSlope: {x: 0, y: 0, z: 0.037641693, w: 0.0050268075}
        outSlope: {x: 0, y: 0, z: 0.037641693, w: 0.0050268075}
        tangentMode: 0
        weightedMode: 0
        inWeight: {x: 0.33333334, y: 0.33333334, z: 0.33333334, w: 0.33333334}
        outWeight: {x: 0.33333334, y: 0.33333334, z: 0.33333334, w: 0.33333334}
      - serializedVersion: 3
        time: 0.58333325
        value: {x: 0, y: 0, z: 0.06609219, w: 0.9978135}
        inSlope: {x: 0, y: 0, z: 0.47856557, w: -0.03160431}
        outSlope: {x: 0, y: 0, z: 0.47856557, w: -0.03160431}
        tangentMode: 0
        weightedMode: 0
        inWeight: {x: 0.33333334, y: 0.33333334, z: 0.33333334, w: 0.33333334}
        outWeight: {x: 0.33333334, y: 0.33333334, z: 0.33333334, w: 0.33333334}
      - serializedVersion: 3
        time: 1.1666667
        value: {x: 0, y: 0, z: 0.18686579, w: 0.98238546}
        inSlope: {x: 0, y: 0, z: -0.25504363, w: 0.048110433}
        outSlope: {x: 0, y: 0, z: -0.25504363, w: 0.048110433}
        tangentMode: 0
        weightedMode: 0
        inWeight: {x: 0.33333334, y: 0.33333334, z: 0.33333334, w: 0.33333334}
        outWeight: {x: 0.33333334, y: 0.33333334, z: 0.33333334, w: 0.33333334}
      - serializedVersion: 3
        time: 1.5833333
        value: {x: 0, y: -0, z: -0.009869694, w: 0.9999513}
        inSlope: {x: 0, y: 0, z: -0.53429234, w: -0.0050696894}
        outSlope: {x: 0, y: 0, z: -0.53429234, w: -0.0050696894}
        tangentMode: 0
        weightedMode: 0
        inWeight: {x: 0.33333334, y: 0.33333334, z: 0.33333334, w: 0.33333334}
        outWeight: {x: 0.33333334, y: 0.33333334, z: 0.33333334, w: 0.33333334}
      - serializedVersion: 3
        time: 1.9583333
        value: {x: 0, y: -0, z: -0.13313967, w: 0.9910973}
        inSlope: {x: 0, y: 0, z: -0.048426934, w: -0.006455923}
        outSlope: {x: 0, y: 0, z: -0.048426934, w: -0.006455923}
        tangentMode: 0
        weightedMode: 0
        inWeight: {x: 0.33333334, y: 0.33333334, z: 0.33333334, w: 0.33333334}
        outWeight: {x: 0.33333334, y: 0.33333334, z: 0.33333334, w: 0.33333334}
      m_PreInfinity: 2
      m_PostInfinity: 2
      m_RotationOrder: 4
    path: World_Ctrl/Root_Ctrl
  - curve:
      serializedVersion: 2
      m_Curve:
      - serializedVersion: 3
        time: 0
        value: {x: -0.47047433, y: 0.27441186, z: 0.42253911, w: 0.72443956}
        inSlope: {x: 0.14523597, y: 0.046963602, z: -0.014662715, w: 0.08420546}
        outSlope: {x: 0.14523597, y: 0.046963602, z: -0.014662715, w: 0.08420546}
        tangentMode: 0
        weightedMode: 0
        inWeight: {x: 0.33333334, y: 0.33333334, z: 0.33333334, w: 0.33333334}
        outWeight: {x: 0.33333334, y: 0.33333334, z: 0.33333334, w: 0.33333334}
      - serializedVersion: 3
        time: 0.125
        value: {x: -0.42107394, y: 0.2899158, z: 0.4178122, w: 0.7510516}
        inSlope: {x: 0.72558516, y: 0.22178787, z: -0.06515932, w: 0.35283}
        outSlope: {x: 0.72558516, y: 0.22178787, z: -0.06515932, w: 0.35283}
        tangentMode: 0
        weightedMode: 0
        inWeight: {x: 0.33333334, y: 0.33333334, z: 0.33333334, w: 0.33333334}
        outWeight: {x: 0.33333334, y: 0.33333334, z: 0.33333334, w: 0.33333334}
      - serializedVersion: 3
        time: 0.33333325
        value: {x: -0.21029624, y: 0.3510628, z: 0.40373394, w: 0.81824774}
        inSlope: {x: 1.068439, y: 0.29227203, z: -0.032286003, w: 0.16755824}
        outSlope: {x: 1.068439, y: 0.29227203, z: -0.032286003, w: 0.16755824}
        tangentMode: 0
        weightedMode: 0
        inWeight: {x: 0.33333334, y: 0.33333334, z: 0.33333334, w: 0.33333334}
        outWeight: {x: 0.33333334, y: 0.33333334, z: 0.33333334, w: 0.33333334}
      - serializedVersion: 3
        time: 0.58333325
        value: {x: -0.07334944, y: 0.3594068, z: 0.43841302, w: 0.8205124}
        inSlope: {x: -0.18306011, y: -0.43653, z: 0.3925519, w: -0.03911165}
        outSlope: {x: -0.18306011, y: -0.43653, z: 0.3925519, w: -0.03911165}
        tangentMode: 0
        weightedMode: 0
        inWeight: {x: 0.33333334, y: 0.33333334, z: 0.33333334, w: 0.33333334}
        outWeight: {x: 0.33333334, y: 0.33333334, z: 0.33333334, w: 0.33333334}
      - serializedVersion: 3
        time: 0.79166675
        value: {x: -0.18522553, y: 0.1882184, z: 0.5305011, w: 0.80550224}
        inSlope: {x: -0.70439255, y: -1.0193295, z: 0.31695145, w: -0.13184683}
        outSlope: {x: -0.70439255, y: -1.0193295, z: 0.31695145, w: -0.13184683}
        tangentMode: 0
        weightedMode: 0
        inWeight: {x: 0.33333334, y: 0.33333334, z: 0.33333334, w: 0.33333334}
        outWeight: {x: 0.33333334, y: 0.33333334, z: 0.33333334, w: 0.33333334}
      - serializedVersion: 3
        time: 1.0833333
        value: {x: -0.29955712, y: 0.026636444, z: 0.55381995, w: 0.7764274}
        inSlope: {x: 0.17767192, y: 0.3776071, z: -0.050326575, w: 0.08686312}
        outSlope: {x: 0.17767192, y: 0.3776071, z: -0.050326575, w: 0.08686312}
        tangentMode: 0
        weightedMode: 0
        inWeight: {x: 0.33333334, y: 0.33333334, z: 0.33333334, w: 0.33333334}
        outWeight: {x: 0.33333334, y: 0.33333334, z: 0.33333334, w: 0.33333334}
      - serializedVersion: 3
        time: 1.2916667
        value: {x: -0.19483851, y: 0.2212248, z: 0.5019521, w: 0.81310624}
        inSlope: {x: 0.6965157, y: 1.1210085, z: -0.47049773, w: 0.15290295}
        outSlope: {x: 0.6965157, y: 1.1210085, z: -0.47049773, w: 0.15290295}
        tangentMode: 0
        weightedMode: 0
        inWeight: {x: 0.33333334, y: 0.33333334, z: 0.33333334, w: 0.33333334}
        outWeight: {x: 0.33333334, y: 0.33333334, z: 0.33333334, w: 0.33333334}
      - serializedVersion: 3
        time: 1.5000002
        value: {x: -0.076230705, y: 0.37493882, z: 0.4187634, w: 0.8235575}
        inSlope: {x: 0.24524496, y: 0.12089603, z: -0.010326423, w: -0.02483797}
        outSlope: {x: 0.24524496, y: 0.12089603, z: -0.010326423, w: -0.02483797}
        tangentMode: 0
        weightedMode: 0
        inWeight: {x: 0.33333334, y: 0.33333334, z: 0.33333334, w: 0.33333334}
        outWeight: {x: 0.33333334, y: 0.33333334, z: 0.33333334, w: 0.33333334}
      - serializedVersion: 3
        time: 1.6250002
        value: {x: -0.11196235, y: 0.34560955, z: 0.4383729, w: 0.82209957}
        inSlope: {x: -0.9459976, y: -0.40455943, z: 0.06796605, w: -0.0044561382}
        outSlope: {x: -0.9459976, y: -0.40455943, z: 0.06796605, w: -0.0044561382}
        tangentMode: 0
        weightedMode: 0
        inWeight: {x: 0.33333334, y: 0.33333334, z: 0.33333334, w: 0.33333334}
        outWeight: {x: 0.33333334, y: 0.33333334, z: 0.33333334, w: 0.33333334}
      - serializedVersion: 3
        time: 1.7500002
        value: {x: -0.27895266, y: 0.29656926, z: 0.43263358, w: 0.80440056}
        inSlope: {x: -1.4649876, y: -0.29477537, z: -0.100846946, w: -0.34404778}
        outSlope: {x: -1.4649876, y: -0.29477537, z: -0.100846946, w: -0.34404778}
        tangentMode: 0
        weightedMode: 0
        inWeight: {x: 0.33333334, y: 0.33333334, z: 0.33333334, w: 0.33333334}
        outWeight: {x: 0.33333334, y: 0.33333334, z: 0.33333334, w: 0.33333334}
      - serializedVersion: 3
        time: 1.9166667
        value: {x: -0.4607833, y: 0.27476573, z: 0.42264113, w: 0.73044986}
        inSlope: {x: -0.44072762, y: -0.021810735, z: -0.008818779, w: -0.25779203}
        outSlope: {x: -0.44072762, y: -0.021810735, z: -0.008818779, w: -0.25779203}
        tangentMode: 0
        weightedMode: 0
        inWeight: {x: 0.33333334, y: 0.33333334, z: 0.33333334, w: 0.33333334}
        outWeight: {x: 0.33333334, y: 0.33333334, z: 0.33333334, w: 0.33333334}
      - serializedVersion: 3
        time: 1.9583333
        value: {x: -0.47047433, y: 0.27441186, z: 0.42253911, w: 0.72443956}
        inSlope: {x: -0.23258561, y: -0.008492979, z: -0.0024483297, w: -0.1442476}
        outSlope: {x: -0.23258561, y: -0.008492979, z: -0.0024483297, w: -0.1442476}
        tangentMode: 0
        weightedMode: 0
        inWeight: {x: 0.33333334, y: 0.33333334, z: 0.33333334, w: 0.33333334}
        outWeight: {x: 0.33333334, y: 0.33333334, z: 0.33333334, w: 0.33333334}
      m_PreInfinity: 2
      m_PostInfinity: 2
      m_RotationOrder: 4
    path: World_Ctrl/Root_Ctrl/L_Arm_Ctrl
  - curve:
      serializedVersion: 2
      m_Curve:
      - serializedVersion: 3
        time: 0
        value: {x: 0.26334882, y: 0.036700863, z: 0.5749221, w: 0.7737992}
        inSlope: {x: -0.070689306, y: -0.14349903, z: 0.013702843, w: 0.019978486}
        outSlope: {x: -0.070689306, y: -0.14349903, z: 0.013702843, w: 0.019978486}
        tangentMode: 0
        weightedMode: 0
        inWeight: {x: 0.33333334, y: 0.33333334, z: 0.33333334, w: 0.33333334}
        outWeight: {x: 0.33333334, y: 0.33333334, z: 0.33333334, w: 0.33333334}
      - serializedVersion: 3
        time: 0.16666675
        value: {x: 0.22429237, y: -0.045091636, z: 0.5770821, w: 0.78398716}
        inSlope: {x: -0.40097553, y: -0.8608943, z: -0.04330529, w: 0.09345254}
        outSlope: {x: -0.40097553, y: -0.8608943, z: -0.04330529, w: 0.09345254}
        tangentMode: 0
        weightedMode: 0
        inWeight: {x: 0.33333334, y: 0.33333334, z: 0.33333334, w: 0.33333334}
        outWeight: {x: 0.33333334, y: 0.33333334, z: 0.33333334, w: 0.33333334}
      - serializedVersion: 3
        time: 0.375
        value: {x: 0.13262926, y: -0.25230315, z: 0.52805114, w: 0.7999466}
        inSlope: {x: -0.37188113, y: -0.91827023, z: -0.412013, w: 0.046596676}
        outSlope: {x: -0.37188113, y: -0.91827023, z: -0.412013, w: 0.046596676}
        tangentMode: 0
        weightedMode: 0
        inWeight: {x: 0.33333334, y: 0.33333334, z: 0.33333334, w: 0.33333334}
        outWeight: {x: 0.33333334, y: 0.33333334, z: 0.33333334, w: 0.33333334}
      - serializedVersion: 3
        time: 0.625
        value: {x: 0.13499668, y: -0.3641779, z: 0.4407292, w: 0.80926394}
        inSlope: {x: 0.6542258, y: 0.086801834, z: -0.1758596, w: 0.021743733}
        outSlope: {x: 0.6542258, y: 0.086801834, z: -0.1758596, w: 0.021743733}
        tangentMode: 0
        weightedMode: 0
        inWeight: {x: 0.33333334, y: 0.33333334, z: 0.33333334, w: 0.33333334}
        outWeight: {x: 0.33333334, y: 0.33333334, z: 0.33333334, w: 0.33333334}
      - serializedVersion: 3
        time: 0.83333325
        value: {x: 0.34080276, y: -0.31032658, z: 0.42361885, w: 0.77980644}
        inSlope: {x: 1.0353187, y: 0.2888127, z: -0.025346562, w: -0.32172585}
        outSlope: {x: 1.0353187, y: 0.2888127, z: -0.025346562, w: -0.32172585}
        tangentMode: 0
        weightedMode: 0
        inWeight: {x: 0.33333334, y: 0.33333334, z: 0.33333334, w: 0.33333334}
        outWeight: {x: 0.33333334, y: 0.33333334, z: 0.33333334, w: 0.33333334}
      - serializedVersion: 3
        time: 1.0833333
        value: {x: 0.46441594, y: -0.27546236, z: 0.42366588, w: 0.72728646}
        inSlope: {x: -0.2762119, y: -0.04951835, z: 0.050479658, w: 0.12559763}
        outSlope: {x: -0.2762119, y: -0.04951835, z: 0.050479658, w: 0.12559763}
        tangentMode: 0
        weightedMode: 0
        inWeight: {x: 0.33333334, y: 0.33333334, z: 0.33333334, w: 0.33333334}
        outWeight: {x: 0.33333334, y: 0.33333334, z: 0.33333334, w: 0.33333334}
      - serializedVersion: 3
        time: 1.3333333
        value: {x: 0.2618904, y: -0.32577446, z: 0.45579126, w: 0.78583634}
        inSlope: {x: -1.0421214, y: -0.31642744, z: 0.12491998, w: 0.14464463}
        outSlope: {x: -1.0421214, y: -0.31642744, z: 0.12491998, w: 0.14464463}
        tangentMode: 0
        weightedMode: 0
        inWeight: {x: 0.33333334, y: 0.33333334, z: 0.33333334, w: 0.33333334}
        outWeight: {x: 0.33333334, y: 0.33333334, z: 0.33333334, w: 0.33333334}
      - serializedVersion: 3
        time: 1.5416667
        value: {x: 0.10237778, y: -0.3582869, z: 0.46019337, w: 0.80583584}
        inSlope: {x: -0.24139339, y: 0.25805202, z: -0.014492208, w: 0.15357529}
        outSlope: {x: -0.24139339, y: 0.25805202, z: -0.014492208, w: 0.15357529}
        tangentMode: 0
        weightedMode: 0
        inWeight: {x: 0.33333334, y: 0.33333334, z: 0.33333334, w: 0.33333334}
        outWeight: {x: 0.33333334, y: 0.33333334, z: 0.33333334, w: 0.33333334}
      - serializedVersion: 3
        time: 1.7500002
        value: {x: 0.17603092, y: -0.15736897, z: 0.53834134, w: 0.80897266}
        inSlope: {x: 0.6427691, y: 1.3672144, z: 0.43519622, w: -0.16296086}
        outSlope: {x: 0.6427691, y: 1.3672144, z: 0.43519622, w: -0.16296086}
        tangentMode: 0
        weightedMode: 0
        inWeight: {x: 0.33333334, y: 0.33333334, z: 0.33333334, w: 0.33333334}
        outWeight: {x: 0.33333334, y: 0.33333334, z: 0.33333334, w: 0.33333334}
      - serializedVersion: 3
        time: 1.9166667
        value: {x: 0.25872973, y: 0.025845235, z: 0.57417643, w: 0.77634555}
        inSlope: {x: 0.20801432, y: 0.48483145, z: 0.042143743, w: -0.10937375}
        outSlope: {x: 0.20801432, y: 0.48483145, z: 0.042143743, w: -0.10937375}
        tangentMode: 0
        weightedMode: 0
        inWeight: {x: 0.33333334, y: 0.33333334, z: 0.33333334, w: 0.33333334}
        outWeight: {x: 0.33333334, y: 0.33333334, z: 0.33333334, w: 0.33333334}
      - serializedVersion: 3
        time: 1.9583333
        value: {x: 0.26334882, y: 0.036700863, z: 0.5749221, w: 0.7737992}
        inSlope: {x: 0.11085863, y: 0.26053607, z: 0.017895767, w: -0.061113115}
        outSlope: {x: 0.11085863, y: 0.26053607, z: 0.017895767, w: -0.061113115}
        tangentMode: 0
        weightedMode: 0
        inWeight: {x: 0.33333334, y: 0.33333334, z: 0.33333334, w: 0.33333334}
        outWeight: {x: 0.33333334, y: 0.33333334, z: 0.33333334, w: 0.33333334}
      m_PreInfinity: 2
      m_PostInfinity: 2
      m_RotationOrder: 4
    path: World_Ctrl/Root_Ctrl/R_Arm_Ctrl
  - curve:
      serializedVersion: 2
      m_Curve:
      - serializedVersion: 3
        time: 0
        value: {x: 0, y: -0, z: -0, w: 1}
        inSlope: {x: 0, y: 0, z: 0, w: 0}
        outSlope: {x: 0, y: 0, z: 0, w: 0}
        tangentMode: 0
        weightedMode: 0
        inWeight: {x: 0.33333334, y: 0.33333334, z: 0.33333334, w: 0.33333334}
        outWeight: {x: 0.33333334, y: 0.33333334, z: 0.33333334, w: 0.33333334}
      - serializedVersion: 3
        time: 1.9583333
        value: {x: 0, y: -0, z: -0, w: 1}
        inSlope: {x: 0, y: 0, z: 0, w: 0}
        outSlope: {x: 0, y: 0, z: 0, w: 0}
        tangentMode: 0
        weightedMode: 0
        inWeight: {x: 0.33333334, y: 0.33333334, z: 0.33333334, w: 0.33333334}
        outWeight: {x: 0.33333334, y: 0.33333334, z: 0.33333334, w: 0.33333334}
      m_PreInfinity: 2
      m_PostInfinity: 2
      m_RotationOrder: 4
    path: World_Ctrl/Root_Ctrl/Ankle_Ctrl
  - curve:
      serializedVersion: 2
      m_Curve:
      - serializedVersion: 3
        time: 0
        value: {x: -0.60666764, y: 0.7949556, z: -8.582467e-17, w: -1.1529314e-17}
        inSlope: {x: -0.03017229, y: -0.023064092, z: -4.3532117e-19, w: 3.2598464e-18}
        outSlope: {x: -0.03017229, y: -0.023064092, z: -4.3532117e-19, w: 3.2598464e-18}
        tangentMode: 0
        weightedMode: 0
        inWeight: {x: 0.33333334, y: 0.33333334, z: 0.33333334, w: 0.33333334}
        outWeight: {x: 0.33333334, y: 0.33333334, z: 0.33333334, w: 0.33333334}
      - serializedVersion: 3
        time: 0.58333325
        value: {x: -0.75229496, y: 0.6588265, z: -8.640627e-17, w: 5.7232933e-18}
        inSlope: {x: -0.31604964, y: -0.36074603, z: 2.7368443e-18, w: 4.144177e-17}
        outSlope: {x: -0.31604964, y: -0.36074603, z: 2.7368443e-18, w: 4.144177e-17}
        tangentMode: 0
        weightedMode: 0
        inWeight: {x: 0.33333334, y: 0.33333334, z: 0.33333334, w: 0.33333334}
        outWeight: {x: 0.33333334, y: 0.33333334, z: 0.33333334, w: 0.33333334}
      - serializedVersion: 3
        time: 1.1666667
        value: {x: -0.8267855, y: 0.5625173, z: -8.5070265e-17, w: 1.6181762e-17}
        inSlope: {x: 0.14632472, y: 0.21436223, z: -4.1661473e-18, w: -2.2085727e-17}
        outSlope: {x: 0.14632472, y: 0.21436223, z: -4.1661473e-18, w: -2.2085727e-17}
        tangentMode: 0
        weightedMode: 0
        inWeight: {x: 0.33333334, y: 0.33333334, z: 0.33333334, w: 0.33333334}
        outWeight: {x: 0.33333334, y: 0.33333334, z: 0.33333334, w: 0.33333334}
      - serializedVersion: 3
        time: 1.5833333
        value: {x: -0.70009345, y: 0.71405125, z: -8.659139e-17, w: -8.5466813e-19}
        inSlope: {x: 0.38138437, y: 0.374214, z: 4.391299e-19, w: -4.6267084e-17}
        outSlope: {x: 0.38138437, y: 0.374214, z: 4.391299e-19, w: -4.6267084e-17}
        tangentMode: 0
        weightedMode: 0
        inWeight: {x: 0.33333334, y: 0.33333334, z: 0.33333334, w: 0.33333334}
        outWeight: {x: 0.33333334, y: 0.33333334, z: 0.33333334, w: 0.33333334}
      - serializedVersion: 3
        time: 1.9583333
        value: {x: -0.60666764, y: 0.7949556, z: -8.582467e-17, w: -1.1529314e-17}
        inSlope: {x: 0.038808495, y: 0.029680366, z: 5.5904386e-19, w: -4.1937424e-18}
        outSlope: {x: 0.038808495, y: 0.029680366, z: 5.5904386e-19, w: -4.1937424e-18}
        tangentMode: 0
        weightedMode: 0
        inWeight: {x: 0.33333334, y: 0.33333334, z: 0.33333334, w: 0.33333334}
        outWeight: {x: 0.33333334, y: 0.33333334, z: 0.33333334, w: 0.33333334}
      m_PreInfinity: 2
      m_PostInfinity: 2
      m_RotationOrder: 4
    path: World_Ctrl/Root
  - curve:
      serializedVersion: 2
      m_Curve:
      - serializedVersion: 3
        time: 0
        value: {x: 0.16039822, y: -0.0111689195, z: 0.08213437, w: 0.9835658}
        inSlope: {x: 0.0018496478, y: 0.04048304, z: 0.046632618, w: -0.003818028}
        outSlope: {x: 0.0018496478, y: 0.04048304, z: 0.046632618, w: -0.003818028}
        tangentMode: 0
        weightedMode: 0
        inWeight: {x: 0.33333334, y: 0.33333334, z: 0.33333334, w: 0.33333334}
        outWeight: {x: 0.33333334, y: 0.33333334, z: 0.33333334, w: 0.33333334}
      - serializedVersion: 3
        time: 0.5
        value: {x: 0.17050852, y: 0.0747521, z: 0.19973482, w: 0.9620005}
        inSlope: {x: 0.030855179, y: 0.2628811, z: 0.5177673, w: -0.1345837}
        outSlope: {x: 0.030855179, y: 0.2628811, z: 0.5177673, w: -0.1345837}
        tangentMode: 0
        weightedMode: 0
        inWeight: {x: 0.33333334, y: 0.33333334, z: 0.33333334, w: 0.33333334}
        outWeight: {x: 0.33333334, y: 0.33333334, z: 0.33333334, w: 0.33333334}
      - serializedVersion: 3
        time: 0.79166675
        value: {x: 0.20598516, y: 0.19377835, z: 0.39315355, w: 0.8749002}
        inSlope: {x: 0.2657414, y: 0.47224927, z: 0.5724024, w: -0.42333955}
        outSlope: {x: 0.2657414, y: 0.47224927, z: 0.5724024, w: -0.42333955}
        tangentMode: 0
        weightedMode: 0
        inWeight: {x: 0.33333334, y: 0.33333334, z: 0.33333334, w: 0.33333334}
        outWeight: {x: 0.33333334, y: 0.33333334, z: 0.33333334, w: 0.33333334}
      - serializedVersion: 3
        time: 1.0833333
        value: {x: 0.2576259, y: 0.2643097, z: 0.46509677, w: 0.8046454}
        inSlope: {x: -0.1875696, y: -0.17013675, z: -0.07921454, w: 0.1594076}
        outSlope: {x: -0.1875696, y: -0.17013675, z: -0.07921454, w: 0.1594076}
        tangentMode: 0
        weightedMode: 0
        inWeight: {x: 0.33333334, y: 0.33333334, z: 0.33333334, w: 0.33333334}
        outWeight: {x: 0.33333334, y: 0.33333334, z: 0.33333334, w: 0.33333334}
      - serializedVersion: 3
        time: 1.3333333
        value: {x: 0.17053866, y: 0.14732684, z: 0.3600478, w: 0.9053049}
        inSlope: {x: -0.1976199, y: -0.5538759, z: -0.7782533, w: 0.43660784}
        outSlope: {x: -0.1976199, y: -0.5538759, z: -0.7782533, w: 0.43660784}
        tangentMode: 0
        weightedMode: 0
        inWeight: {x: 0.33333334, y: 0.33333334, z: 0.33333334, w: 0.33333334}
        outWeight: {x: 0.33333334, y: 0.33333334, z: 0.33333334, w: 0.33333334}
      - serializedVersion: 3
        time: 1.5416667
        value: {x: 0.17912051, y: 0.07728588, z: 0.17675735, w: 0.96472776}
        inSlope: {x: 0.18442744, y: -0.06539376, z: -0.8021035, w: 0.12062548}
        outSlope: {x: 0.18442744, y: -0.06539376, z: -0.8021035, w: 0.12062548}
        tangentMode: 0
        weightedMode: 0
        inWeight: {x: 0.33333334, y: 0.33333334, z: 0.33333334, w: 0.33333334}
        outWeight: {x: 0.33333334, y: 0.33333334, z: 0.33333334, w: 0.33333334}
      - serializedVersion: 3
        time: 1.8333333
        value: {x: 0.16939548, y: 0.01096102, z: 0.082806855, w: 0.9820021}
        inSlope: {x: -0.113993526, y: -0.2984053, z: -0.052601963, w: 0.027769066}
        outSlope: {x: -0.113993526, y: -0.2984053, z: -0.052601963, w: 0.027769066}
        tangentMode: 0
        weightedMode: 0
        inWeight: {x: 0.33333334, y: 0.33333334, z: 0.33333334, w: 0.33333334}
        outWeight: {x: 0.33333334, y: 0.33333334, z: 0.33333334, w: 0.33333334}
      - serializedVersion: 3
        time: 1.9583333
        value: {x: 0.16039822, y: -0.0111689195, z: 0.08213437, w: 0.9835658}
        inSlope: {x: -0.029854173, y: -0.06118265, z: 0.022081817, w: 0.0024390314}
        outSlope: {x: -0.029854173, y: -0.06118265, z: 0.022081817, w: 0.0024390314}
        tangentMode: 0
        weightedMode: 0
        inWeight: {x: 0.33333334, y: 0.33333334, z: 0.33333334, w: 0.33333334}
        outWeight: {x: 0.33333334, y: 0.33333334, z: 0.33333334, w: 0.33333334}
      m_PreInfinity: 2
      m_PostInfinity: 2
      m_RotationOrder: 4
    path: World_Ctrl/Root/Leg_01
  - curve:
      serializedVersion: 2
      m_Curve:
      - serializedVersion: 3
        time: 0
        value: {x: -0.065921806, y: -0.19389568, z: -0.31507197, w: 0.9267084}
        inSlope: {x: -0.0016218392, y: -0.0017187563, z: -0.004297248, w: -0.0019369088}
        outSlope: {x: -0.0016218392, y: -0.0017187563, z: -0.004297248, w: -0.0019369088}
        tangentMode: 0
        weightedMode: 0
        inWeight: {x: 0.33333334, y: 0.33333334, z: 0.33333334, w: 0.33333334}
        outWeight: {x: 0.33333334, y: 0.33333334, z: 0.33333334, w: 0.33333334}
      - serializedVersion: 3
        time: 0.33333325
        value: {x: -0.036968697, y: -0.15703581, z: -0.2261537, w: 0.9606391}
        inSlope: {x: 0.12359668, y: 0.19110274, z: 0.447434, w: 0.14136472}
        outSlope: {x: 0.12359668, y: 0.19110274, z: 0.447434, w: 0.14136472}
        tangentMode: 0
        weightedMode: 0
        inWeight: {x: 0.33333334, y: 0.33333334, z: 0.33333334, w: 0.33333334}
        outWeight: {x: 0.33333334, y: 0.33333334, z: 0.33333334, w: 0.33333334}
      - serializedVersion: 3
        time: 0.625
        value: {x: -0.023154546, y: -0.13278908, z: -0.1702153, w: 0.9761443}
        inSlope: {x: -0.058125347, y: -0.115637854, z: -0.26356497, w: -0.063851476}
        outSlope: {x: -0.058125347, y: -0.115637854, z: -0.26356497, w: -0.063851476}
        tangentMode: 0
        weightedMode: 0
        inWeight: {x: 0.33333334, y: 0.33333334, z: 0.33333334, w: 0.33333334}
        outWeight: {x: 0.33333334, y: 0.33333334, z: 0.33333334, w: 0.33333334}
      - serializedVersion: 3
        time: 0.95833325
        value: {x: -0.055569805, y: -0.18224652, z: -0.2863196, w: 0.9389991}
        inSlope: {x: -0.06454781, y: -0.077682085, z: -0.1891979, w: -0.07610744}
        outSlope: {x: -0.06454781, y: -0.077682085, z: -0.1891979, w: -0.07610744}
        tangentMode: 0
        weightedMode: 0
        inWeight: {x: 0.33333334, y: 0.33333334, z: 0.33333334, w: 0.33333334}
        outWeight: {x: 0.33333334, y: 0.33333334, z: 0.33333334, w: 0.33333334}
      - serializedVersion: 3
        time: 1.3750002
        value: {x: -0.031516954, y: -0.14820786, z: -0.205605, w: 0.9668339}
        inSlope: {x: 0.10935429, y: 0.18514678, z: 0.42876166, w: 0.123433545}
        outSlope: {x: 0.10935429, y: 0.18514678, z: 0.42876166, w: 0.123433545}
        tangentMode: 0
        weightedMode: 0
        inWeight: {x: 0.33333334, y: 0.33333334, z: 0.33333334, w: 0.33333334}
        outWeight: {x: 0.33333334, y: 0.33333334, z: 0.33333334, w: 0.33333334}
      - serializedVersion: 3
        time: 1.6250002
        value: {x: -0.025701704, y: -0.13777015, z: -0.18158509, w: 0.9733374}
        inSlope: {x: -0.09939133, y: -0.18628871, z: -0.42690444, w: -0.110350296}
        outSlope: {x: -0.09939133, y: -0.18628871, z: -0.42690444, w: -0.110350296}
        tangentMode: 0
        weightedMode: 0
        inWeight: {x: 0.33333334, y: 0.33333334, z: 0.33333334, w: 0.33333334}
        outWeight: {x: 0.33333334, y: 0.33333334, z: 0.33333334, w: 0.33333334}
      - serializedVersion: 3
        time: 1.8750002
        value: {x: -0.060671758, y: -0.18816215, z: -0.3008315, w: 0.93296}
        inSlope: {x: -0.097968474, y: -0.11116793, z: -0.27390674, w: -0.116218}
        outSlope: {x: -0.097968474, y: -0.11116793, z: -0.27390674, w: -0.116218}
        tangentMode: 0
        weightedMode: 0
        inWeight: {x: 0.33333334, y: 0.33333334, z: 0.33333334, w: 0.33333334}
        outWeight: {x: 0.33333334, y: 0.33333334, z: 0.33333334, w: 0.33333334}
      - serializedVersion: 3
        time: 1.9583333
        value: {x: -0.065921806, y: -0.19389568, z: -0.31507197, w: 0.9267084}
        inSlope: {x: -0.044344414, y: -0.047503177, z: -0.11847899, w: -0.052901946}
        outSlope: {x: -0.044344414, y: -0.047503177, z: -0.11847899, w: -0.052901946}
        tangentMode: 0
        weightedMode: 0
        inWeight: {x: 0.33333334, y: 0.33333334, z: 0.33333334, w: 0.33333334}
        outWeight: {x: 0.33333334, y: 0.33333334, z: 0.33333334, w: 0.33333334}
      m_PreInfinity: 2
      m_PostInfinity: 2
      m_RotationOrder: 4
    path: World_Ctrl/Root/Leg_01/Leg_02
  - curve:
      serializedVersion: 2
      m_Curve:
      - serializedVersion: 3
        time: 0
        value: {x: 0.4288176, y: 0.07950839, z: -0.0028967196, w: 0.8998809}
        inSlope: {x: 0.015717, y: -0.028167969, z: 0.008016108, w: -0.0050024893}
        outSlope: {x: 0.015717, y: -0.028167969, z: 0.008016108, w: -0.0050024893}
        tangentMode: 0
        weightedMode: 0
        inWeight: {x: 0.33333334, y: 0.33333334, z: 0.33333334, w: 0.33333334}
        outWeight: {x: 0.33333334, y: 0.33333334, z: 0.33333334, w: 0.33333334}
      - serializedVersion: 3
        time: 0.41666675
        value: {x: 0.40821406, y: -0.05069496, z: -0.0406808, w: 0.91056925}
        inSlope: {x: -0.117192976, y: -0.4311086, z: -0.12179969, w: 0.023383152}
        outSlope: {x: -0.117192976, y: -0.4311086, z: -0.12179969, w: 0.023383152}
        tangentMode: 0
        weightedMode: 0
        inWeight: {x: 0.33333334, y: 0.33333334, z: 0.33333334, w: 0.33333334}
        outWeight: {x: 0.33333334, y: 0.33333334, z: 0.33333334, w: 0.33333334}
      - serializedVersion: 3
        time: 0.70833325
        value: {x: 0.3839702, y: -0.136664, z: -0.027801989, w: 0.9127524}
        inSlope: {x: -0.103841245, y: -0.2163091, z: 0.2582932, w: 0.01885987}
        outSlope: {x: -0.103841245, y: -0.2163091, z: 0.2582932, w: 0.01885987}
        tangentMode: 0
        weightedMode: 0
        inWeight: {x: 0.33333334, y: 0.33333334, z: 0.33333334, w: 0.33333334}
        outWeight: {x: 0.33333334, y: 0.33333334, z: 0.33333334, w: 0.33333334}
      - serializedVersion: 3
        time: 1.0416667
        value: {x: 0.33660758, y: -0.19014937, z: 0.053329136, w: 0.9207033}
        inSlope: {x: 0.02175852, y: 0.012274729, z: -0.01426583, w: -0.004728574}
        outSlope: {x: 0.02175852, y: 0.012274729, z: -0.01426583, w: -0.004728574}
        tangentMode: 0
        weightedMode: 0
        inWeight: {x: 0.33333334, y: 0.33333334, z: 0.33333334, w: 0.33333334}
        outWeight: {x: 0.33333334, y: 0.33333334, z: 0.33333334, w: 0.33333334}
      - serializedVersion: 3
        time: 1.2916667
        value: {x: 0.3970435, y: -0.1324884, z: -0.02176636, w: 0.90792596}
        inSlope: {x: 0.17995223, y: 0.30258805, z: -0.34919062, w: -0.041962784}
        outSlope: {x: 0.17995223, y: 0.30258805, z: -0.34919062, w: -0.041962784}
        tangentMode: 0
        weightedMode: 0
        inWeight: {x: 0.33333334, y: 0.33333334, z: 0.33333334, w: 0.33333334}
        outWeight: {x: 0.33333334, y: 0.33333334, z: 0.33333334, w: 0.33333334}
      - serializedVersion: 3
        time: 1.5416667
        value: {x: 0.39451912, y: -0.08564296, z: -0.0379364, w: 0.91410106}
        inSlope: {x: -0.046910226, y: 0.13381404, z: 0.30707288, w: 0.04502409}
        outSlope: {x: -0.046910226, y: 0.13381404, z: 0.30707288, w: 0.04502409}
        tangentMode: 0
        weightedMode: 0
        inWeight: {x: 0.33333334, y: 0.33333334, z: 0.33333334, w: 0.33333334}
        outWeight: {x: 0.33333334, y: 0.33333334, z: 0.33333334, w: 0.33333334}
      - serializedVersion: 3
        time: 1.8333333
        value: {x: 0.42599016, y: 0.045278218, z: 0.0010338189, w: 0.90359354}
        inSlope: {x: 0.05158925, y: 0.45967644, z: -0.04200547, w: -0.046313465}
        outSlope: {x: 0.05158925, y: 0.45967644, z: -0.04200547, w: -0.046313465}
        tangentMode: 0
        weightedMode: 0
        inWeight: {x: 0.33333334, y: 0.33333334, z: 0.33333334, w: 0.33333334}
        outWeight: {x: 0.33333334, y: 0.33333334, z: 0.33333334, w: 0.33333334}
      - serializedVersion: 3
        time: 1.9583333
        value: {x: 0.4288176, y: 0.07950839, z: -0.0028967196, w: 0.8998809}
        inSlope: {x: 0.017166918, y: 0.1206734, z: -0.0019395128, w: -0.018495154}
        outSlope: {x: 0.017166918, y: 0.1206734, z: -0.0019395128, w: -0.018495154}
        tangentMode: 0
        weightedMode: 0
        inWeight: {x: 0.33333334, y: 0.33333334, z: 0.33333334, w: 0.33333334}
        outWeight: {x: 0.33333334, y: 0.33333334, z: 0.33333334, w: 0.33333334}
      m_PreInfinity: 2
      m_PostInfinity: 2
      m_RotationOrder: 4
    path: World_Ctrl/Root/Leg_01/Leg_02/Leg_03
  - curve:
      serializedVersion: 2
      m_Curve:
      - serializedVersion: 3
        time: 0
        value: {x: -0.46563268, y: 0.19242503, z: -0.18186536, w: 0.84444296}
        inSlope: {x: 0.005817879, y: 0.048853662, z: 0.16569369, w: 0.027003713}
        outSlope: {x: 0.005817879, y: 0.048853662, z: 0.16569369, w: 0.027003713}
        tangentMode: 0
        weightedMode: 0
        inWeight: {x: 0.33333334, y: 0.33333334, z: 0.33333334, w: 0.33333334}
        outWeight: {x: 0.33333334, y: 0.33333334, z: 0.33333334, w: 0.33333334}
      - serializedVersion: 3
        time: 0.125
        value: {x: -0.46382374, y: 0.20853232, z: -0.1262285, w: 0.8517325}
        inSlope: {x: 0.023458555, y: 0.22996841, z: 0.80364597, w: 0.071515426}
        outSlope: {x: 0.023458555, y: 0.22996841, z: 0.80364597, w: 0.071515426}
        tangentMode: 0
        weightedMode: 0
        inWeight: {x: 0.33333334, y: 0.33333334, z: 0.33333334, w: 0.33333334}
        outWeight: {x: 0.33333334, y: 0.33333334, z: 0.33333334, w: 0.33333334}
      - serializedVersion: 3
        time: 0.33333325
        value: {x: -0.46117684, y: 0.27122325, z: 0.09466384, w: 0.83951926}
        inSlope: {x: -0.021763789, y: 0.29324338, z: 1.0581253, w: -0.223642}
        outSlope: {x: -0.021763789, y: 0.29324338, z: 1.0581253, w: -0.223642}
        tangentMode: 0
        weightedMode: 0
        inWeight: {x: 0.33333334, y: 0.33333334, z: 0.33333334, w: 0.33333334}
        outWeight: {x: 0.33333334, y: 0.33333334, z: 0.33333334, w: 0.33333334}
      - serializedVersion: 3
        time: 0.58333325
        value: {x: -0.49679744, y: 0.27307796, z: 0.22345124, w: 0.7928999}
        inSlope: {x: -0.3060081, y: -0.5010152, z: -0.18499471, w: 0.028595129}
        outSlope: {x: -0.3060081, y: -0.5010152, z: -0.18499471, w: 0.028595129}
        tangentMode: 0
        weightedMode: 0
        inWeight: {x: 0.33333334, y: 0.33333334, z: 0.33333334, w: 0.33333334}
        outWeight: {x: 0.33333334, y: 0.33333334, z: 0.33333334, w: 0.33333334}
      - serializedVersion: 3
        time: 0.79166675
        value: {x: -0.5559917, y: 0.08792493, z: 0.11355761, w: 0.8186862}
        inSlope: {x: -0.12499736, y: -1.060123, z: -0.70520043, w: 0.12746081}
        outSlope: {x: -0.12499736, y: -1.060123, z: -0.70520043, w: 0.12746081}
        tangentMode: 0
        weightedMode: 0
        inWeight: {x: 0.33333334, y: 0.33333334, z: 0.33333334, w: 0.33333334}
        outWeight: {x: 0.33333334, y: 0.33333334, z: 0.33333334, w: 0.33333334}
      - serializedVersion: 3
        time: 1.0833333
        value: {x: -0.54933745, y: -0.07519557, z: -0.0036362852, w: 0.8322024}
        inSlope: {x: -0.01964872, y: 0.38043532, z: 0.19695187, w: 0.017947122}
        outSlope: {x: -0.01964872, y: 0.38043532, z: 0.19695187, w: 0.017947122}
        tangentMode: 0
        weightedMode: 0
        inWeight: {x: 0.33333334, y: 0.33333334, z: 0.33333334, w: 0.33333334}
        outWeight: {x: 0.33333334, y: 0.33333334, z: 0.33333334, w: 0.33333334}
      - serializedVersion: 3
        time: 1.2916667
        value: {x: -0.5339672, y: 0.12559958, z: 0.107279874, w: 0.8292134}
        inSlope: {x: 0.25733784, y: 1.1881981, z: 0.70533335, w: -0.10497777}
        outSlope: {x: 0.25733784, y: 1.1881981, z: 0.70533335, w: -0.10497777}
        tangentMode: 0
        weightedMode: 0
        inWeight: {x: 0.33333334, y: 0.33333334, z: 0.33333334, w: 0.33333334}
        outWeight: {x: 0.33333334, y: 0.33333334, z: 0.33333334, w: 0.33333334}
      - serializedVersion: 3
        time: 1.5000002
        value: {x: -0.48032314, y: 0.29194453, z: 0.22184226, w: 0.79677105}
        inSlope: {x: -0.011979323, y: 0.12074354, z: 0.22035128, w: -0.11048877}
        outSlope: {x: -0.011979323, y: 0.12074354, z: 0.22035128, w: -0.11048877}
        tangentMode: 0
        weightedMode: 0
        inWeight: {x: 0.33333334, y: 0.33333334, z: 0.33333334, w: 0.33333334}
        outWeight: {x: 0.33333334, y: 0.33333334, z: 0.33333334, w: 0.33333334}
      - serializedVersion: 3
        time: 1.6250002
        value: {x: -0.49423218, y: 0.25952137, z: 0.18793125, w: 0.8081244}
        inSlope: {x: 0.00723939, y: -0.41016465, z: -0.88565314, w: 0.33249128}
        outSlope: {x: 0.00723939, y: -0.41016465, z: -0.88565314, w: 0.33249128}
        tangentMode: 0
        weightedMode: 0
        inWeight: {x: 0.33333334, y: 0.33333334, z: 0.33333334, w: 0.33333334}
        outWeight: {x: 0.33333334, y: 0.33333334, z: 0.33333334, w: 0.33333334}
      - serializedVersion: 3
        time: 1.7500002
        value: {x: -0.47961265, y: 0.21236034, z: 0.025574561, w: 0.8510116}
        inSlope: {x: 0.15310481, y: -0.2713338, z: -1.4915214, w: 0.19982806}
        outSlope: {x: 0.15310481, y: -0.2713338, z: -1.4915214, w: 0.19982806}
        tangentMode: 0
        weightedMode: 0
        inWeight: {x: 0.33333334, y: 0.33333334, z: 0.33333334, w: 0.33333334}
        outWeight: {x: 0.33333334, y: 0.33333334, z: 0.33333334, w: 0.33333334}
      - serializedVersion: 3
        time: 1.9166667
        value: {x: -0.4657977, y: 0.19275421, z: -0.17066997, w: 0.84661096}
        inSlope: {x: 0.012661148, y: -0.019828396, z: -0.5036183, w: -0.08407148}
        outSlope: {x: 0.012661148, y: -0.019828396, z: -0.5036183, w: -0.08407148}
        tangentMode: 0
        weightedMode: 0
        inWeight: {x: 0.33333334, y: 0.33333334, z: 0.33333334, w: 0.33333334}
        outWeight: {x: 0.33333334, y: 0.33333334, z: 0.33333334, w: 0.33333334}
      - serializedVersion: 3
        time: 1.9583333
        value: {x: -0.46563268, y: 0.19242503, z: -0.18186536, w: 0.84444296}
        inSlope: {x: 0.003960386, y: -0.007900387, z: -0.2686904, w: -0.05203219}
        outSlope: {x: 0.003960386, y: -0.007900387, z: -0.2686904, w: -0.05203219}
        tangentMode: 0
        weightedMode: 0
        inWeight: {x: 0.33333334, y: 0.33333334, z: 0.33333334, w: 0.33333334}
        outWeight: {x: 0.33333334, y: 0.33333334, z: 0.33333334, w: 0.33333334}
      m_PreInfinity: 2
      m_PostInfinity: 2
      m_RotationOrder: 4
    path: World_Ctrl/Root/Head_01/L_Clavicle/L_Shoulder
  - curve:
      serializedVersion: 2
      m_Curve:
      - serializedVersion: 3
        time: 0
        value: {x: 0, y: -0, z: -0, w: 1}
        inSlope: {x: 0, y: 0, z: 0, w: 0}
        outSlope: {x: 0, y: 0, z: 0, w: 0}
        tangentMode: 0
        weightedMode: 0
        inWeight: {x: 0.33333334, y: 0.33333334, z: 0.33333334, w: 0.33333334}
        outWeight: {x: 0.33333334, y: 0.33333334, z: 0.33333334, w: 0.33333334}
      - serializedVersion: 3
        time: 1.9583333
        value: {x: 0, y: -0, z: -0, w: 1}
        inSlope: {x: 0, y: 0, z: 0, w: 0}
        outSlope: {x: 0, y: 0, z: 0, w: 0}
        tangentMode: 0
        weightedMode: 0
        inWeight: {x: 0.33333334, y: 0.33333334, z: 0.33333334, w: 0.33333334}
        outWeight: {x: 0.33333334, y: 0.33333334, z: 0.33333334, w: 0.33333334}
      m_PreInfinity: 2
      m_PostInfinity: 2
      m_RotationOrder: 4
    path: World_Ctrl/Root/Head_01/L_Clavicle/L_Shoulder/L_Elbow/L_Fruit_03/L_Fruit_03
      1/L_Fruit_03 2
  - curve:
      serializedVersion: 2
      m_Curve:
      - serializedVersion: 3
        time: 0
        value: {x: 0, y: -0, z: -0, w: 1}
        inSlope: {x: 0, y: 0, z: 0, w: 0}
        outSlope: {x: 0, y: 0, z: 0, w: 0}
        tangentMode: 0
        weightedMode: 0
        inWeight: {x: 0.33333334, y: 0.33333334, z: 0.33333334, w: 0.33333334}
        outWeight: {x: 0.33333334, y: 0.33333334, z: 0.33333334, w: 0.33333334}
      - serializedVersion: 3
        time: 1.9583333
        value: {x: 0, y: -0, z: -0, w: 1}
        inSlope: {x: 0, y: 0, z: 0, w: 0}
        outSlope: {x: 0, y: 0, z: 0, w: 0}
        tangentMode: 0
        weightedMode: 0
        inWeight: {x: 0.33333334, y: 0.33333334, z: 0.33333334, w: 0.33333334}
        outWeight: {x: 0.33333334, y: 0.33333334, z: 0.33333334, w: 0.33333334}
      m_PreInfinity: 2
      m_PostInfinity: 2
      m_RotationOrder: 4
    path: World_Ctrl/Root/Head_01/L_Clavicle/L_Shoulder/L_Elbow/L_Hand/L_Fruit_02/L_Fruit_02
      1/L_Fruit_02 2
  - curve:
      serializedVersion: 2
      m_Curve:
      - serializedVersion: 3
        time: 0
        value: {x: 0, y: -0, z: -0, w: 1}
        inSlope: {x: 0, y: 0, z: 0, w: 0}
        outSlope: {x: 0, y: 0, z: 0, w: 0}
        tangentMode: 0
        weightedMode: 0
        inWeight: {x: 0.33333334, y: 0.33333334, z: 0.33333334, w: 0.33333334}
        outWeight: {x: 0.33333334, y: 0.33333334, z: 0.33333334, w: 0.33333334}
      - serializedVersion: 3
        time: 1.9583333
        value: {x: 0, y: -0, z: -0, w: 1}
        inSlope: {x: 0, y: 0, z: 0, w: 0}
        outSlope: {x: 0, y: 0, z: 0, w: 0}
        tangentMode: 0
        weightedMode: 0
        inWeight: {x: 0.33333334, y: 0.33333334, z: 0.33333334, w: 0.33333334}
        outWeight: {x: 0.33333334, y: 0.33333334, z: 0.33333334, w: 0.33333334}
      m_PreInfinity: 2
      m_PostInfinity: 2
      m_RotationOrder: 4
    path: World_Ctrl/Root/Head_01/L_Clavicle/L_Shoulder/L_Fruit_01/L_Fruit_01 1/L_Fruit_01
      2
  - curve:
      serializedVersion: 2
      m_Curve:
      - serializedVersion: 3
        time: 0
        value: {x: 0.25622106, y: 0.053703, z: 0.54932725, w: 0.79354036}
        inSlope: {x: -0.06562316, y: -0.1457404, z: 0.012283779, w: 0.021861035}
        outSlope: {x: -0.06562316, y: -0.1457404, z: 0.012283779, w: 0.021861035}
        tangentMode: 0
        weightedMode: 0
        inWeight: {x: 0.33333334, y: 0.33333334, z: 0.33333334, w: 0.33333334}
        outWeight: {x: 0.33333334, y: 0.33333334, z: 0.33333334, w: 0.33333334}
      - serializedVersion: 3
        time: 0.16666675
        value: {x: 0.22010648, y: -0.029334936, z: 0.55073786, w: 0.8045995}
        inSlope: {x: -0.36937225, y: -0.87377644, z: -0.05055441, w: 0.10026179}
        outSlope: {x: -0.36937225, y: -0.87377644, z: -0.05055441, w: 0.10026179}
        tangentMode: 0
        weightedMode: 0
        inWeight: {x: 0.33333334, y: 0.33333334, z: 0.33333334, w: 0.33333334}
        outWeight: {x: 0.33333334, y: 0.33333334, z: 0.33333334, w: 0.33333334}
      - serializedVersion: 3
        time: 0.375
        value: {x: 0.13642438, y: -0.23953718, z: 0.5002706, w: 0.8208165}
        inSlope: {x: -0.33463016, y: -0.93052506, z: -0.41704124, w: 0.04076378}
        outSlope: {x: -0.33463016, y: -0.93052506, z: -0.41704124, w: 0.04076378}
        tangentMode: 0
        weightedMode: 0
        inWeight: {x: 0.33333334, y: 0.33333334, z: 0.33333334, w: 0.33333334}
        outWeight: {x: 0.33333334, y: 0.33333334, z: 0.33333334, w: 0.33333334}
      - serializedVersion: 3
        time: 0.625
        value: {x: 0.1436607, y: -0.3511581, z: 0.4126979, w: 0.82808816}
        inSlope: {x: 0.6523777, y: 0.11043742, z: -0.17011431, w: 0.01456687}
        outSlope: {x: 0.6523777, y: 0.11043742, z: -0.17011431, w: 0.01456687}
        tangentMode: 0
        weightedMode: 0
        inWeight: {x: 0.33333334, y: 0.33333334, z: 0.33333334, w: 0.33333334}
        outWeight: {x: 0.33333334, y: 0.33333334, z: 0.33333334, w: 0.33333334}
      - serializedVersion: 3
        time: 0.83333325
        value: {x: 0.34755865, y: -0.2902453, z: 0.3986714, w: 0.79750973}
        inSlope: {x: 1.0244851, y: 0.3226254, z: -0.0036460406, w: -0.3252406}
        outSlope: {x: 1.0244851, y: 0.3226254, z: -0.0036460406, w: -0.3252406}
        tangentMode: 0
        weightedMode: 0
        inWeight: {x: 0.33333334, y: 0.33333334, z: 0.33333334, w: 0.33333334}
        outWeight: {x: 0.33333334, y: 0.33333334, z: 0.33333334, w: 0.33333334}
      - serializedVersion: 3
        time: 1.0833333
        value: {x: 0.4698345, y: -0.25148237, z: 0.40181366, w: 0.74468654}
        inSlope: {x: -0.27473524, y: -0.058169328, z: 0.043232005, w: 0.12780705}
        outSlope: {x: -0.27473524, y: -0.058169328, z: 0.043232005, w: 0.12780705}
        tangentMode: 0
        weightedMode: 0
        inWeight: {x: 0.33333334, y: 0.33333334, z: 0.33333334, w: 0.33333334}
        outWeight: {x: 0.33333334, y: 0.33333334, z: 0.33333334, w: 0.33333334}
      - serializedVersion: 3
        time: 1.3333333
        value: {x: 0.26894075, y: -0.3084558, z: 0.42983267, w: 0.80484146}
        inSlope: {x: -1.0312606, y: -0.35219696, z: 0.10944007, w: 0.15212405}
        outSlope: {x: -1.0312606, y: -0.35219696, z: 0.10944007, w: 0.15212405}
        tangentMode: 0
        weightedMode: 0
        inWeight: {x: 0.33333334, y: 0.33333334, z: 0.33333334, w: 0.33333334}
        outWeight: {x: 0.33333334, y: 0.33333334, z: 0.33333334, w: 0.33333334}
      - serializedVersion: 3
        time: 1.5416667
        value: {x: 0.11066226, y: -0.34647548, z: 0.43195236, w: 0.82530344}
        inSlope: {x: -0.2503486, y: 0.2507106, z: -0.022357907, w: 0.15042242}
        outSlope: {x: -0.2503486, y: 0.2507106, z: -0.022357907, w: 0.15042242}
        tangentMode: 0
        weightedMode: 0
        inWeight: {x: 0.33333334, y: 0.33333334, z: 0.33333334, w: 0.33333334}
        outWeight: {x: 0.33333334, y: 0.33333334, z: 0.33333334, w: 0.33333334}
      - serializedVersion: 3
        time: 1.7500002
        value: {x: 0.17628756, y: -0.14302269, z: 0.5106545, w: 0.82927626}
        inSlope: {x: 0.58899, y: 1.3877478, z: 0.44703692, w: -0.16061127}
        outSlope: {x: 0.58899, y: 1.3877478, z: 0.44703692, w: -0.16061127}
        tangentMode: 0
        weightedMode: 0
        inWeight: {x: 0.33333334, y: 0.33333334, z: 0.33333334, w: 0.33333334}
        outWeight: {x: 0.33333334, y: 0.33333334, z: 0.33333334, w: 0.33333334}
      - serializedVersion: 3
        time: 1.9166667
        value: {x: 0.25200218, y: 0.04271409, z: 0.5484455, w: 0.7961645}
        inSlope: {x: 0.19005544, y: 0.49089396, z: 0.048076812, w: -0.11253304}
        outSlope: {x: 0.19005544, y: 0.49089396, z: 0.048076812, w: -0.11253304}
        tangentMode: 0
        weightedMode: 0
        inWeight: {x: 0.33333334, y: 0.33333334, z: 0.33333334, w: 0.33333334}
        outWeight: {x: 0.33333334, y: 0.33333334, z: 0.33333334, w: 0.33333334}
      - serializedVersion: 3
        time: 1.9583333
        value: {x: 0.25622106, y: 0.053703, z: 0.54932725, w: 0.79354036}
        inSlope: {x: 0.10125342, y: 0.26373485, z: 0.021161636, w: -0.06297994}
        outSlope: {x: 0.10125342, y: 0.26373485, z: 0.021161636, w: -0.06297994}
        tangentMode: 0
        weightedMode: 0
        inWeight: {x: 0.33333334, y: 0.33333334, z: 0.33333334, w: 0.33333334}
        outWeight: {x: 0.33333334, y: 0.33333334, z: 0.33333334, w: 0.33333334}
      m_PreInfinity: 2
      m_PostInfinity: 2
      m_RotationOrder: 4
    path: World_Ctrl/Root/Head_01/R_Clavicle/R_Shoulder
  - curve:
      serializedVersion: 2
      m_Curve:
      - serializedVersion: 3
        time: 0
        value: {x: 0, y: -0, z: -0, w: 1}
        inSlope: {x: 0, y: 0, z: 0, w: 0}
        outSlope: {x: 0, y: 0, z: 0, w: 0}
        tangentMode: 0
        weightedMode: 0
        inWeight: {x: 0.33333334, y: 0.33333334, z: 0.33333334, w: 0.33333334}
        outWeight: {x: 0.33333334, y: 0.33333334, z: 0.33333334, w: 0.33333334}
      - serializedVersion: 3
        time: 1.9583333
        value: {x: 0, y: -0, z: -0, w: 1}
        inSlope: {x: 0, y: 0, z: 0, w: 0}
        outSlope: {x: 0, y: 0, z: 0, w: 0}
        tangentMode: 0
        weightedMode: 0
        inWeight: {x: 0.33333334, y: 0.33333334, z: 0.33333334, w: 0.33333334}
        outWeight: {x: 0.33333334, y: 0.33333334, z: 0.33333334, w: 0.33333334}
      m_PreInfinity: 2
      m_PostInfinity: 2
      m_RotationOrder: 4
    path: World_Ctrl/Root/Head_01/R_Clavicle/R_Shoulder/R_Elbow/R_Hand/R_Fruit_02/R_Fruit_02
      1/R_Fruit_02 2
  - curve:
      serializedVersion: 2
      m_Curve:
      - serializedVersion: 3
        time: 0
        value: {x: 0, y: -0, z: -0, w: 1}
        inSlope: {x: 0, y: 0, z: 0, w: 0}
        outSlope: {x: 0, y: 0, z: 0, w: 0}
        tangentMode: 0
        weightedMode: 0
        inWeight: {x: 0.33333334, y: 0.33333334, z: 0.33333334, w: 0.33333334}
        outWeight: {x: 0.33333334, y: 0.33333334, z: 0.33333334, w: 0.33333334}
      - serializedVersion: 3
        time: 1.9583333
        value: {x: 0, y: -0, z: -0, w: 1}
        inSlope: {x: 0, y: 0, z: 0, w: 0}
        outSlope: {x: 0, y: 0, z: 0, w: 0}
        tangentMode: 0
        weightedMode: 0
        inWeight: {x: 0.33333334, y: 0.33333334, z: 0.33333334, w: 0.33333334}
        outWeight: {x: 0.33333334, y: 0.33333334, z: 0.33333334, w: 0.33333334}
      m_PreInfinity: 2
      m_PostInfinity: 2
      m_RotationOrder: 4
    path: World_Ctrl/Root/Head_01/R_Clavicle/R_Shoulder/R_Elbow/R_Fruit_03/R_Fruit_01
      1/R_Fruit_03 2
  - curve:
      serializedVersion: 2
      m_Curve:
      - serializedVersion: 3
        time: 0
        value: {x: 0, y: -0, z: -0, w: 1}
        inSlope: {x: 0, y: 0, z: 0, w: 0}
        outSlope: {x: 0, y: 0, z: 0, w: 0}
        tangentMode: 0
        weightedMode: 0
        inWeight: {x: 0.33333334, y: 0.33333334, z: 0.33333334, w: 0.33333334}
        outWeight: {x: 0.33333334, y: 0.33333334, z: 0.33333334, w: 0.33333334}
      - serializedVersion: 3
        time: 1.9583333
        value: {x: 0, y: -0, z: -0, w: 1}
        inSlope: {x: 0, y: 0, z: 0, w: 0}
        outSlope: {x: 0, y: 0, z: 0, w: 0}
        tangentMode: 0
        weightedMode: 0
        inWeight: {x: 0.33333334, y: 0.33333334, z: 0.33333334, w: 0.33333334}
        outWeight: {x: 0.33333334, y: 0.33333334, z: 0.33333334, w: 0.33333334}
      m_PreInfinity: 2
      m_PostInfinity: 2
      m_RotationOrder: 4
    path: World_Ctrl/Root/Head_01/R_Clavicle/R_Shoulder/R_Fruit_01/R_Fruit_03 1/R_Fruit_01
      2
  m_CompressedRotationCurves: []
  m_EulerCurves: []
  m_PositionCurves:
  - curve:
      serializedVersion: 2
      m_Curve:
      - serializedVersion: 3
        time: 0
        value: {x: -0, y: 0, z: 0}
        inSlope: {x: 0, y: 0, z: 0}
        outSlope: {x: 0, y: 0, z: 0}
        tangentMode: 0
        weightedMode: 0
        inWeight: {x: 0.33333334, y: 0.33333334, z: 0.33333334}
        outWeight: {x: 0.33333334, y: 0.33333334, z: 0.33333334}
      - serializedVersion: 3
        time: 1.9583333
        value: {x: -0, y: 0, z: 0}
        inSlope: {x: 0, y: 0, z: 0}
        outSlope: {x: 0, y: 0, z: 0}
        tangentMode: 0
        weightedMode: 0
        inWeight: {x: 0.33333334, y: 0.33333334, z: 0.33333334}
        outWeight: {x: 0.33333334, y: 0.33333334, z: 0.33333334}
      m_PreInfinity: 2
      m_PostInfinity: 2
      m_RotationOrder: 4
    path: World_Ctrl
  - curve:
      serializedVersion: 2
      m_Curve:
      - serializedVersion: 3
        time: 0
        value: {x: -8.2156505e-17, y: 0.022719463, z: -0.02}
        inSlope: {x: 0, y: 0, z: 0}
        outSlope: {x: 0, y: 0, z: 0}
        tangentMode: 0
        weightedMode: 0
        inWeight: {x: 0.33333334, y: 0.33333334, z: 0.33333334}
        outWeight: {x: 0.33333334, y: 0.33333334, z: 0.33333334}
      - serializedVersion: 3
        time: 1.9583333
        value: {x: -8.2156505e-17, y: 0.022719463, z: -0.02}
        inSlope: {x: 0, y: 0, z: 0}
        outSlope: {x: 0, y: 0, z: 0}
        tangentMode: 0
        weightedMode: 0
        inWeight: {x: 0.33333334, y: 0.33333334, z: 0.33333334}
        outWeight: {x: 0.33333334, y: 0.33333334, z: 0.33333334}
      m_PreInfinity: 2
      m_PostInfinity: 2
      m_RotationOrder: 4
    path: World_Ctrl/IK/Leg_IK
  - curve:
      serializedVersion: 2
      m_Curve:
      - serializedVersion: 3
        time: 0
        value: {x: -3.1086245e-17, y: -0.000025171483, z: -0.02}
        inSlope: {x: 0, y: 0, z: 0}
        outSlope: {x: 0, y: 0, z: 0}
        tangentMode: 0
        weightedMode: 0
        inWeight: {x: 0.33333334, y: 0.33333334, z: 0.33333334}
        outWeight: {x: 0.33333334, y: 0.33333334, z: 0.33333334}
      - serializedVersion: 3
        time: 1.9583333
        value: {x: -3.1086245e-17, y: -0.000025171483, z: -0.02}
        inSlope: {x: 0, y: 0, z: 0}
        outSlope: {x: 0, y: 0, z: 0}
        tangentMode: 0
        weightedMode: 0
        inWeight: {x: 0.33333334, y: 0.33333334, z: 0.33333334}
        outWeight: {x: 0.33333334, y: 0.33333334, z: 0.33333334}
      m_PreInfinity: 2
      m_PostInfinity: 2
      m_RotationOrder: 4
    path: World_Ctrl/Leg_Ctrl
  - curve:
      serializedVersion: 2
      m_Curve:
      - serializedVersion: 3
        time: 0
        value: {x: -0.0012277159, y: 0.23325782, z: 0.01872738}
        inSlope: {x: -0.0000000577669, y: -0.008877118, z: -0.00000014486204}
        outSlope: {x: -0.0000000577669, y: -0.008877118, z: -0.00000014486204}
        tangentMode: 0
        weightedMode: 0
        inWeight: {x: 0.33333334, y: 0.33333334, z: 0.33333334}
        outWeight: {x: 0.33333334, y: 0.33333334, z: 0.33333334}
      - serializedVersion: 3
        time: 0.5
        value: {x: -0.0076556983, y: 0.2610039, z: -0.007975667}
        inSlope: {x: -0.015788855, y: 0.023424568, z: -0.0655903}
        outSlope: {x: -0.015789578, y: 0.023425119, z: -0.06559317}
        tangentMode: 0
        weightedMode: 0
        inWeight: {x: 0.33333334, y: 0.33333334, z: 0.33333334}
        outWeight: {x: 0.33333334, y: 0.33333334, z: 0.33333334}
      - serializedVersion: 3
        time: 0.58333325
        value: {x: -0.008947812, y: 0.26101586, z: -0.013343352}
        inSlope: {x: -0.017087156, y: -0.022135794, z: -0.070982866}
        outSlope: {x: -0.01708711, y: -0.022138013, z: -0.07098284}
        tangentMode: 0
        weightedMode: 0
        inWeight: {x: 0.33333334, y: 0.33333334, z: 0.33333334}
        outWeight: {x: 0.33333334, y: 0.33333334, z: 0.33333334}
      - serializedVersion: 3
        time: 1.0416667
        value: {x: -0.016245753, y: 0.2366014, z: -0.04366037}
        inSlope: {x: -0.00000008550606, y: -0.0000017860013, z: 0.000000017694406}
        outSlope: {x: -0.00000011639267, y: -0.000003118587, z: -0.0000013757428}
        tangentMode: 0
        weightedMode: 0
        inWeight: {x: 0.33333334, y: 0.33333334, z: 0.33333334}
        outWeight: {x: 0.33333334, y: 0.33333334, z: 0.33333334}
      - serializedVersion: 3
        time: 1.5416667
        value: {x: -0.008286432, y: 0.26150587, z: -0.010595855}
        inSlope: {x: -0.014417636, y: -0.0000019414538, z: -0.059893202}
        outSlope: {x: -0.01441721, y: -0.0000023520167, z: -0.05989164}
        tangentMode: 0
        weightedMode: 0
        inWeight: {x: 0.33333334, y: 0.33333334, z: 0.33333334}
        outWeight: {x: 0.33333334, y: 0.33333334, z: 0.33333334}
      - serializedVersion: 3
        time: 1.9583333
        value: {x: -0.0012277159, y: 0.23325782, z: 0.01872738}
        inSlope: {x: -0.00000014719222, y: -0.008873277, z: -0.00000059296934}
        outSlope: {x: -0.00000014719222, y: -0.008873277, z: -0.00000059296934}
        tangentMode: 0
        weightedMode: 0
        inWeight: {x: 0.33333334, y: 0.33333334, z: 0.33333334}
        outWeight: {x: 0.33333334, y: 0.33333334, z: 0.33333334}
      m_PreInfinity: 2
      m_PostInfinity: 2
      m_RotationOrder: 4
    path: World_Ctrl/Root_Ctrl
  - curve:
      serializedVersion: 2
      m_Curve:
      - serializedVersion: 3
        time: 0
        value: {x: -0.101310305, y: -0.12613212, z: 1.3322676e-17}
        inSlope: {x: 0, y: 0, z: 0}
        outSlope: {x: 0, y: 0, z: 0}
        tangentMode: 0
        weightedMode: 0
        inWeight: {x: 0.33333334, y: 0.33333334, z: 0.33333334}
        outWeight: {x: 0.33333334, y: 0.33333334, z: 0.33333334}
      - serializedVersion: 3
        time: 1.9583333
        value: {x: -0.101310305, y: -0.12613212, z: 1.3322676e-17}
        inSlope: {x: 0, y: 0, z: 0}
        outSlope: {x: 0, y: 0, z: 0}
        tangentMode: 0
        weightedMode: 0
        inWeight: {x: 0.33333334, y: 0.33333334, z: 0.33333334}
        outWeight: {x: 0.33333334, y: 0.33333334, z: 0.33333334}
      m_PreInfinity: 2
      m_PostInfinity: 2
      m_RotationOrder: 4
    path: World_Ctrl/Root_Ctrl/Ankle_Ctrl
  - curve:
      serializedVersion: 2
      m_Curve:
      - serializedVersion: 3
        time: 0
        value: {x: -0.0012277159, y: 0.23325782, z: 0.01872738}
        inSlope: {x: -0.0018293892, y: 0.00385639, z: -0.007599567}
        outSlope: {x: -0.0018293892, y: 0.00385639, z: -0.007599567}
        tangentMode: 0
        weightedMode: 0
        inWeight: {x: 0.33333334, y: 0.33333334, z: 0.33333334}
        outWeight: {x: 0.33333334, y: 0.33333334, z: 0.33333334}
      - serializedVersion: 3
        time: 0.041666508
        value: {x: -0.0013039374, y: 0.23341846, z: 0.018410742}
        inSlope: {x: -0.003520933, y: 0.015248209, z: -0.014626538}
        outSlope: {x: -0.0035208382, y: 0.015246004, z: -0.014626167}
        tangentMode: 0
        weightedMode: 0
        inWeight: {x: 0.33333334, y: 0.33333334, z: 0.33333334}
        outWeight: {x: 0.33333334, y: 0.33333334, z: 0.33333334}
      - serializedVersion: 3
        time: 0.375
        value: {x: -0.005541163, y: 0.25481346, z: 0.00080851075}
        inSlope: {x: -0.017354453, y: 0.06892315, z: -0.07209345}
        outSlope: {x: -0.01735517, y: 0.06892817, z: -0.07209657}
        tangentMode: 0
        weightedMode: 0
        inWeight: {x: 0.33333334, y: 0.33333334, z: 0.33333334}
        outWeight: {x: 0.33333334, y: 0.33333334, z: 0.33333334}
      - serializedVersion: 3
        time: 0.5
        value: {x: -0.0076557007, y: 0.2610039, z: -0.007975676}
        inSlope: {x: -0.015719913, y: 0.022755906, z: -0.065304}
        outSlope: {x: -0.015720686, y: 0.022758545, z: -0.06530668}
        tangentMode: 0
        weightedMode: 0
        inWeight: {x: 0.33333334, y: 0.33333334, z: 0.33333334}
        outWeight: {x: 0.33333334, y: 0.33333334, z: 0.33333334}
      - serializedVersion: 3
        time: 0.58333325
        value: {x: -0.008947814, y: 0.2610159, z: -0.013343357}
        inSlope: {x: -0.017087096, y: -0.02213852, z: -0.070983045}
        outSlope: {x: -0.017087072, y: -0.022136837, z: -0.07098302}
        tangentMode: 0
        weightedMode: 0
        inWeight: {x: 0.33333334, y: 0.33333334, z: 0.33333334}
        outWeight: {x: 0.33333334, y: 0.33333334, z: 0.33333334}
      - serializedVersion: 3
        time: 0.99999976
        value: {x: -0.016135033, y: 0.23709144, z: -0.043200415}
        inSlope: {x: -0.0050724065, y: -0.022138143, z: -0.021072153}
        outSlope: {x: -0.0050725723, y: -0.02213994, z: -0.021073256}
        tangentMode: 0
        weightedMode: 0
        inWeight: {x: 0.33333334, y: 0.33333334, z: 0.33333334}
        outWeight: {x: 0.33333334, y: 0.33333334, z: 0.33333334}
      - serializedVersion: 3
        time: 1.1249998
        value: {x: -0.015489312, y: 0.23844618, z: -0.040517967}
        inSlope: {x: 0.016548578, y: 0.04081497, z: 0.06874457}
        outSlope: {x: 0.016549071, y: 0.040812667, z: 0.068748474}
        tangentMode: 0
        weightedMode: 0
        inWeight: {x: 0.33333334, y: 0.33333334, z: 0.33333334}
        outWeight: {x: 0.33333334, y: 0.33333334, z: 0.33333334}
      - serializedVersion: 3
        time: 1.4999998
        value: {x: -0.007938266, y: 0.26101586, z: -0.009149505}
        inSlope: {x: -0.002937079, y: 0.022138143, z: -0.0122013865}
        outSlope: {x: -0.0029372734, y: 0.022135036, z: -0.0122021325}
        tangentMode: 0
        weightedMode: 0
        inWeight: {x: 0.33333334, y: 0.33333334, z: 0.33333334}
        outWeight: {x: 0.33333334, y: 0.33333334, z: 0.33333334}
      - serializedVersion: 3
        time: 1.5416667
        value: {x: -0.008286432, y: 0.2615059, z: -0.010595855}
        inSlope: {x: -0.007645459, y: -0.0032139793, z: -0.03176089}
        outSlope: {x: -0.0076451963, y: -0.0032110696, z: -0.031759616}
        tangentMode: 0
        weightedMode: 0
        inWeight: {x: 0.33333334, y: 0.33333334, z: 0.33333334}
        outWeight: {x: 0.33333334, y: 0.33333334, z: 0.33333334}
      - serializedVersion: 3
        time: 1.5833333
        value: {x: -0.008575372, y: 0.26074824, z: -0.011796166}
        inSlope: {x: -0.00041767996, y: -0.033833396, z: -0.0017348368}
        outSlope: {x: -0.00041806727, y: -0.03383402, z: -0.0017365416}
        tangentMode: 0
        weightedMode: 0
        inWeight: {x: 0.33333334, y: 0.33333334, z: 0.33333334}
        outWeight: {x: 0.33333334, y: 0.33333334, z: 0.33333334}
      - serializedVersion: 3
        time: 1.7083333
        value: {x: -0.0066668056, y: 0.25191757, z: -0.003867619}
        inSlope: {x: 0.02564096, y: -0.09351217, z: 0.10651767}
        outSlope: {x: 0.025640853, y: -0.09351298, z: 0.10651709}
        tangentMode: 0
        weightedMode: 0
        inWeight: {x: 0.33333334, y: 0.33333334, z: 0.33333334}
        outWeight: {x: 0.33333334, y: 0.33333334, z: 0.33333334}
      - serializedVersion: 3
        time: 1.7499998
        value: {x: -0.005507983, y: 0.24784414, z: 0.00094634836}
        inSlope: {x: 0.0285322, y: -0.09820616, z: 0.11852842}
        outSlope: {x: 0.028533604, y: -0.0982101, z: 0.1185339}
        tangentMode: 0
        weightedMode: 0
        inWeight: {x: 0.33333334, y: 0.33333334, z: 0.33333334}
        outWeight: {x: 0.33333334, y: 0.33333334, z: 0.33333334}
      - serializedVersion: 3
        time: 1.8333333
        value: {x: -0.0031308543, y: 0.239903, z: 0.010821386}
        inSlope: {x: 0.025619196, y: -0.08477337, z: 0.10642689}
        outSlope: {x: 0.025619332, y: -0.08477162, z: 0.10642728}
        tangentMode: 0
        weightedMode: 0
        inWeight: {x: 0.33333334, y: 0.33333334, z: 0.33333334}
        outWeight: {x: 0.33333334, y: 0.33333334, z: 0.33333334}
      - serializedVersion: 3
        time: 1.9166667
        value: {x: -0.0014794231, y: 0.2343483, z: 0.017681742}
        inSlope: {x: 0.011116569, y: -0.040933363, z: 0.046180476}
        outSlope: {x: 0.0111160325, y: -0.040933203, z: 0.046178058}
        tangentMode: 0
        weightedMode: 0
        inWeight: {x: 0.33333334, y: 0.33333334, z: 0.33333334}
        outWeight: {x: 0.33333334, y: 0.33333334, z: 0.33333334}
      - serializedVersion: 3
        time: 1.9583333
        value: {x: -0.0012277159, y: 0.23325782, z: 0.01872738}
        inSlope: {x: 0.006040831, y: -0.026171362, z: 0.025094692}
        outSlope: {x: 0.006040831, y: -0.026171362, z: 0.025094692}
        tangentMode: 0
        weightedMode: 0
        inWeight: {x: 0.33333334, y: 0.33333334, z: 0.33333334}
        outWeight: {x: 0.33333334, y: 0.33333334, z: 0.33333334}
      m_PreInfinity: 2
      m_PostInfinity: 2
      m_RotationOrder: 4
    path: World_Ctrl/Root
  - curve:
      serializedVersion: 2
      m_Curve:
      - serializedVersion: 3
        time: 0
        value: {x: 0.05312572, y: 0.047322743, z: 5.0839632e-17}
        inSlope: {x: 0, y: 0, z: 0}
        outSlope: {x: 0, y: 0, z: 0}
        tangentMode: 0
        weightedMode: 0
        inWeight: {x: 0.33333334, y: 0.33333334, z: 0.33333334}
        outWeight: {x: 0.33333334, y: 0.33333334, z: 0.33333334}
      - serializedVersion: 3
        time: 1.9583333
        value: {x: 0.05312572, y: 0.047322743, z: 5.0839632e-17}
        inSlope: {x: 0, y: 0, z: 0}
        outSlope: {x: 0, y: 0, z: 0}
        tangentMode: 0
        weightedMode: 0
        inWeight: {x: 0.33333334, y: 0.33333334, z: 0.33333334}
        outWeight: {x: 0.33333334, y: 0.33333334, z: 0.33333334}
      m_PreInfinity: 2
      m_PostInfinity: 2
      m_RotationOrder: 4
    path: World_Ctrl/Root/Head_01/L_Clavicle/L_Shoulder
  - curve:
      serializedVersion: 2
      m_Curve:
      - serializedVersion: 3
        time: 0
        value: {x: 0.00014660954, y: 0.053591426, z: -0.004235439}
        inSlope: {x: 0, y: 0, z: 0}
        outSlope: {x: 0, y: 0, z: 0}
        tangentMode: 0
        weightedMode: 0
        inWeight: {x: 0.33333334, y: 0.33333334, z: 0.33333334}
        outWeight: {x: 0.33333334, y: 0.33333334, z: 0.33333334}
      - serializedVersion: 3
        time: 1.9583333
        value: {x: 0.00014660954, y: 0.053591426, z: -0.004235439}
        inSlope: {x: 0, y: 0, z: 0}
        outSlope: {x: 0, y: 0, z: 0}
        tangentMode: 0
        weightedMode: 0
        inWeight: {x: 0.33333334, y: 0.33333334, z: 0.33333334}
        outWeight: {x: 0.33333334, y: 0.33333334, z: 0.33333334}
      m_PreInfinity: 2
      m_PostInfinity: 2
      m_RotationOrder: 4
    path: World_Ctrl/Root/Head_01/L_Clavicle/L_Shoulder/L_Elbow/L_Fruit_03/L_Fruit_03
      1/L_Fruit_03 2
  - curve:
      serializedVersion: 2
      m_Curve:
      - serializedVersion: 3
        time: 0
        value: {x: -0.0020029268, y: -0.00009496227, z: -0.06327446}
        inSlope: {x: 0, y: 0, z: 0}
        outSlope: {x: 0, y: 0, z: 0}
        tangentMode: 0
        weightedMode: 0
        inWeight: {x: 0.33333334, y: 0.33333334, z: 0.33333334}
        outWeight: {x: 0.33333334, y: 0.33333334, z: 0.33333334}
      - serializedVersion: 3
        time: 1.9583333
        value: {x: -0.0020029268, y: -0.00009496227, z: -0.06327446}
        inSlope: {x: 0, y: 0, z: 0}
        outSlope: {x: 0, y: 0, z: 0}
        tangentMode: 0
        weightedMode: 0
        inWeight: {x: 0.33333334, y: 0.33333334, z: 0.33333334}
        outWeight: {x: 0.33333334, y: 0.33333334, z: 0.33333334}
      m_PreInfinity: 2
      m_PostInfinity: 2
      m_RotationOrder: 4
    path: World_Ctrl/Root/Head_01/L_Clavicle/L_Shoulder/L_Elbow/L_Hand/L_Fruit_02/L_Fruit_02
      1/L_Fruit_02 2
  - curve:
      serializedVersion: 2
      m_Curve:
      - serializedVersion: 3
        time: 0
        value: {x: 0.018375022, y: -0.039543808, z: -0.028608061}
        inSlope: {x: 0, y: 0, z: 0}
        outSlope: {x: 0, y: 0, z: 0}
        tangentMode: 0
        weightedMode: 0
        inWeight: {x: 0.33333334, y: 0.33333334, z: 0.33333334}
        outWeight: {x: 0.33333334, y: 0.33333334, z: 0.33333334}
      - serializedVersion: 3
        time: 1.9583333
        value: {x: 0.018375022, y: -0.039543808, z: -0.028608061}
        inSlope: {x: 0, y: 0, z: 0}
        outSlope: {x: 0, y: 0, z: 0}
        tangentMode: 0
        weightedMode: 0
        inWeight: {x: 0.33333334, y: 0.33333334, z: 0.33333334}
        outWeight: {x: 0.33333334, y: 0.33333334, z: 0.33333334}
      m_PreInfinity: 2
      m_PostInfinity: 2
      m_RotationOrder: 4
    path: World_Ctrl/Root/Head_01/L_Clavicle/L_Shoulder/L_Fruit_01/L_Fruit_01 1/L_Fruit_01
      2
  - curve:
      serializedVersion: 2
      m_Curve:
      - serializedVersion: 3
        time: 0
        value: {x: 8.1067545e-17, y: 0.012719001, z: 0.07}
        inSlope: {x: 0, y: 0, z: 0}
        outSlope: {x: 0, y: 0, z: 0}
        tangentMode: 0
        weightedMode: 0
        inWeight: {x: 0.33333334, y: 0.33333334, z: 0.33333334}
        outWeight: {x: 0.33333334, y: 0.33333334, z: 0.33333334}
      - serializedVersion: 3
        time: 1.9583333
        value: {x: 8.1067545e-17, y: 0.012719001, z: 0.07}
        inSlope: {x: 0, y: 0, z: 0}
        outSlope: {x: 0, y: 0, z: 0}
        tangentMode: 0
        weightedMode: 0
        inWeight: {x: 0.33333334, y: 0.33333334, z: 0.33333334}
        outWeight: {x: 0.33333334, y: 0.33333334, z: 0.33333334}
      m_PreInfinity: 2
      m_PostInfinity: 2
      m_RotationOrder: 4
    path: World_Ctrl/Root/Head_01/R_Clavicle/R_Shoulder
  - curve:
      serializedVersion: 2
      m_Curve:
      - serializedVersion: 3
        time: 0
        value: {x: 0.06290216, y: 0.0135099245, z: -0.0028460862}
        inSlope: {x: 0, y: 0, z: 0}
        outSlope: {x: 0, y: 0, z: 0}
        tangentMode: 0
        weightedMode: 0
        inWeight: {x: 0.33333334, y: 0.33333334, z: 0.33333334}
        outWeight: {x: 0.33333334, y: 0.33333334, z: 0.33333334}
      - serializedVersion: 3
        time: 1.9583333
        value: {x: 0.06290216, y: 0.0135099245, z: -0.0028460862}
        inSlope: {x: 0, y: 0, z: 0}
        outSlope: {x: 0, y: 0, z: 0}
        tangentMode: 0
        weightedMode: 0
        inWeight: {x: 0.33333334, y: 0.33333334, z: 0.33333334}
        outWeight: {x: 0.33333334, y: 0.33333334, z: 0.33333334}
      m_PreInfinity: 2
      m_PostInfinity: 2
      m_RotationOrder: 4
    path: World_Ctrl/Root/Head_01/R_Clavicle/R_Shoulder/R_Elbow/R_Hand/R_Fruit_02/R_Fruit_02
      1/R_Fruit_02 2
  - curve:
      serializedVersion: 2
      m_Curve:
      - serializedVersion: 3
        time: 0
        value: {x: 0.0036009976, y: 0.048548196, z: -0.012917507}
        inSlope: {x: 0, y: 0, z: 0}
        outSlope: {x: 0, y: 0, z: 0}
        tangentMode: 0
        weightedMode: 0
        inWeight: {x: 0.33333334, y: 0.33333334, z: 0.33333334}
        outWeight: {x: 0.33333334, y: 0.33333334, z: 0.33333334}
      - serializedVersion: 3
        time: 1.9583333
        value: {x: 0.0036009976, y: 0.048548196, z: -0.012917507}
        inSlope: {x: 0, y: 0, z: 0}
        outSlope: {x: 0, y: 0, z: 0}
        tangentMode: 0
        weightedMode: 0
        inWeight: {x: 0.33333334, y: 0.33333334, z: 0.33333334}
        outWeight: {x: 0.33333334, y: 0.33333334, z: 0.33333334}
      m_PreInfinity: 2
      m_PostInfinity: 2
      m_RotationOrder: 4
    path: World_Ctrl/Root/Head_01/R_Clavicle/R_Shoulder/R_Elbow/R_Fruit_03/R_Fruit_01
      1/R_Fruit_03 2
  - curve:
      serializedVersion: 2
      m_Curve:
      - serializedVersion: 3
        time: 0
        value: {x: 0.03500677, y: -0.03573988, z: -0.01097311}
        inSlope: {x: 0, y: 0, z: 0}
        outSlope: {x: 0, y: 0, z: 0}
        tangentMode: 0
        weightedMode: 0
        inWeight: {x: 0.33333334, y: 0.33333334, z: 0.33333334}
        outWeight: {x: 0.33333334, y: 0.33333334, z: 0.33333334}
      - serializedVersion: 3
        time: 1.9583333
        value: {x: 0.03500677, y: -0.03573988, z: -0.01097311}
        inSlope: {x: 0, y: 0, z: 0}
        outSlope: {x: 0, y: 0, z: 0}
        tangentMode: 0
        weightedMode: 0
        inWeight: {x: 0.33333334, y: 0.33333334, z: 0.33333334}
        outWeight: {x: 0.33333334, y: 0.33333334, z: 0.33333334}
      m_PreInfinity: 2
      m_PostInfinity: 2
      m_RotationOrder: 4
    path: World_Ctrl/Root/Head_01/R_Clavicle/R_Shoulder/R_Fruit_01/R_Fruit_03 1/R_Fruit_01
      2
  m_ScaleCurves:
  - curve:
      serializedVersion: 2
      m_Curve:
      - serializedVersion: 3
        time: 0
        value: {x: 1, y: 1, z: 1}
        inSlope: {x: 0, y: 0, z: 0}
        outSlope: {x: 0, y: 0, z: 0}
        tangentMode: 0
        weightedMode: 0
        inWeight: {x: 0.33333334, y: 0.33333334, z: 0.33333334}
        outWeight: {x: 0.33333334, y: 0.33333334, z: 0.33333334}
      - serializedVersion: 3
        time: 1.9583333
        value: {x: 1, y: 1, z: 1}
        inSlope: {x: 0, y: 0, z: 0}
        outSlope: {x: 0, y: 0, z: 0}
        tangentMode: 0
        weightedMode: 0
        inWeight: {x: 0.33333334, y: 0.33333334, z: 0.33333334}
        outWeight: {x: 0.33333334, y: 0.33333334, z: 0.33333334}
      m_PreInfinity: 2
      m_PostInfinity: 2
      m_RotationOrder: 4
    path: World_Ctrl/Root
  - curve:
      serializedVersion: 2
      m_Curve:
      - serializedVersion: 3
        time: 0
        value: {x: 1, y: 1, z: 1}
        inSlope: {x: 0, y: 0, z: 0}
        outSlope: {x: 0, y: 0, z: 0}
        tangentMode: 0
        weightedMode: 0
        inWeight: {x: 0.33333334, y: 0.33333334, z: 0.33333334}
        outWeight: {x: 0.33333334, y: 0.33333334, z: 0.33333334}
      - serializedVersion: 3
        time: 1.9583333
        value: {x: 1, y: 1, z: 1}
        inSlope: {x: 0, y: 0, z: 0}
        outSlope: {x: 0, y: 0, z: 0}
        tangentMode: 0
        weightedMode: 0
        inWeight: {x: 0.33333334, y: 0.33333334, z: 0.33333334}
        outWeight: {x: 0.33333334, y: 0.33333334, z: 0.33333334}
      m_PreInfinity: 2
      m_PostInfinity: 2
      m_RotationOrder: 4
    path: World_Ctrl/Root/Leg_01/Leg_02
  - curve:
      serializedVersion: 2
      m_Curve:
      - serializedVersion: 3
        time: 0
        value: {x: 1, y: 1, z: 1}
        inSlope: {x: 0, y: 0, z: 0}
        outSlope: {x: 0, y: 0, z: 0}
        tangentMode: 0
        weightedMode: 0
        inWeight: {x: 0.33333334, y: 0.33333334, z: 0.33333334}
        outWeight: {x: 0.33333334, y: 0.33333334, z: 0.33333334}
      - serializedVersion: 3
        time: 1.9583333
        value: {x: 1, y: 1, z: 1}
        inSlope: {x: 0, y: 0, z: 0}
        outSlope: {x: 0, y: 0, z: 0}
        tangentMode: 0
        weightedMode: 0
        inWeight: {x: 0.33333334, y: 0.33333334, z: 0.33333334}
        outWeight: {x: 0.33333334, y: 0.33333334, z: 0.33333334}
      m_PreInfinity: 2
      m_PostInfinity: 2
      m_RotationOrder: 4
    path: World_Ctrl/Root/Leg_01/Leg_02/Leg_03
  - curve:
      serializedVersion: 2
      m_Curve:
      - serializedVersion: 3
        time: 0
        value: {x: 1, y: 1, z: 1}
        inSlope: {x: 0, y: 0, z: 0}
        outSlope: {x: 0, y: 0, z: 0}
        tangentMode: 0
        weightedMode: 0
        inWeight: {x: 0.33333334, y: 0.33333334, z: 0.33333334}
        outWeight: {x: 0.33333334, y: 0.33333334, z: 0.33333334}
      - serializedVersion: 3
        time: 1.9583333
        value: {x: 1, y: 1, z: 1}
        inSlope: {x: 0, y: 0, z: 0}
        outSlope: {x: 0, y: 0, z: 0}
        tangentMode: 0
        weightedMode: 0
        inWeight: {x: 0.33333334, y: 0.33333334, z: 0.33333334}
        outWeight: {x: 0.33333334, y: 0.33333334, z: 0.33333334}
      m_PreInfinity: 2
      m_PostInfinity: 2
      m_RotationOrder: 4
    path: World_Ctrl/Root/Head_01/L_Clavicle/L_Shoulder
  - curve:
      serializedVersion: 2
      m_Curve:
      - serializedVersion: 3
        time: 0
        value: {x: 1, y: 1, z: 1}
        inSlope: {x: 0, y: 0, z: 0}
        outSlope: {x: 0, y: 0, z: 0}
        tangentMode: 0
        weightedMode: 0
        inWeight: {x: 0.33333334, y: 0.33333334, z: 0.33333334}
        outWeight: {x: 0.33333334, y: 0.33333334, z: 0.33333334}
      - serializedVersion: 3
        time: 1.9583333
        value: {x: 1, y: 1, z: 1}
        inSlope: {x: 0, y: 0, z: 0}
        outSlope: {x: 0, y: 0, z: 0}
        tangentMode: 0
        weightedMode: 0
        inWeight: {x: 0.33333334, y: 0.33333334, z: 0.33333334}
        outWeight: {x: 0.33333334, y: 0.33333334, z: 0.33333334}
      m_PreInfinity: 2
      m_PostInfinity: 2
      m_RotationOrder: 4
    path: World_Ctrl/Root/Head_01/L_Clavicle/L_Shoulder/L_Elbow/L_Fruit_03/L_Fruit_03
      1/L_Fruit_03 2
  - curve:
      serializedVersion: 2
      m_Curve:
      - serializedVersion: 3
        time: 0
        value: {x: 1, y: 1, z: 1}
        inSlope: {x: 0, y: 0, z: 0}
        outSlope: {x: 0, y: 0, z: 0}
        tangentMode: 0
        weightedMode: 0
        inWeight: {x: 0.33333334, y: 0.33333334, z: 0.33333334}
        outWeight: {x: 0.33333334, y: 0.33333334, z: 0.33333334}
      - serializedVersion: 3
        time: 1.9583333
        value: {x: 1, y: 1, z: 1}
        inSlope: {x: 0, y: 0, z: 0}
        outSlope: {x: 0, y: 0, z: 0}
        tangentMode: 0
        weightedMode: 0
        inWeight: {x: 0.33333334, y: 0.33333334, z: 0.33333334}
        outWeight: {x: 0.33333334, y: 0.33333334, z: 0.33333334}
      m_PreInfinity: 2
      m_PostInfinity: 2
      m_RotationOrder: 4
    path: World_Ctrl/Root/Head_01/L_Clavicle/L_Shoulder/L_Elbow/L_Hand/L_Fruit_02/L_Fruit_02
      1/L_Fruit_02 2
  - curve:
      serializedVersion: 2
      m_Curve:
      - serializedVersion: 3
        time: 0
        value: {x: 1, y: 1, z: 1}
        inSlope: {x: 0, y: 0, z: 0}
        outSlope: {x: 0, y: 0, z: 0}
        tangentMode: 0
        weightedMode: 0
        inWeight: {x: 0.33333334, y: 0.33333334, z: 0.33333334}
        outWeight: {x: 0.33333334, y: 0.33333334, z: 0.33333334}
      - serializedVersion: 3
        time: 1.9583333
        value: {x: 1, y: 1, z: 1}
        inSlope: {x: 0, y: 0, z: 0}
        outSlope: {x: 0, y: 0, z: 0}
        tangentMode: 0
        weightedMode: 0
        inWeight: {x: 0.33333334, y: 0.33333334, z: 0.33333334}
        outWeight: {x: 0.33333334, y: 0.33333334, z: 0.33333334}
      m_PreInfinity: 2
      m_PostInfinity: 2
      m_RotationOrder: 4
    path: World_Ctrl/Root/Head_01/L_Clavicle/L_Shoulder/L_Fruit_01/L_Fruit_01 1/L_Fruit_01
      2
  - curve:
      serializedVersion: 2
      m_Curve:
      - serializedVersion: 3
        time: 0
        value: {x: 1, y: 1, z: 1}
        inSlope: {x: 0, y: 0, z: 0}
        outSlope: {x: 0, y: 0, z: 0}
        tangentMode: 0
        weightedMode: 0
        inWeight: {x: 0.33333334, y: 0.33333334, z: 0.33333334}
        outWeight: {x: 0.33333334, y: 0.33333334, z: 0.33333334}
      - serializedVersion: 3
        time: 1.9583333
        value: {x: 1, y: 1, z: 1}
        inSlope: {x: 0, y: 0, z: 0}
        outSlope: {x: 0, y: 0, z: 0}
        tangentMode: 0
        weightedMode: 0
        inWeight: {x: 0.33333334, y: 0.33333334, z: 0.33333334}
        outWeight: {x: 0.33333334, y: 0.33333334, z: 0.33333334}
      m_PreInfinity: 2
      m_PostInfinity: 2
      m_RotationOrder: 4
    path: World_Ctrl/Root/Head_01/R_Clavicle/R_Shoulder/R_Elbow/R_Hand/R_Fruit_02/R_Fruit_02
      1/R_Fruit_02 2
  - curve:
      serializedVersion: 2
      m_Curve:
      - serializedVersion: 3
        time: 0
        value: {x: 1, y: 1, z: 1}
        inSlope: {x: 0, y: 0, z: 0}
        outSlope: {x: 0, y: 0, z: 0}
        tangentMode: 0
        weightedMode: 0
        inWeight: {x: 0.33333334, y: 0.33333334, z: 0.33333334}
        outWeight: {x: 0.33333334, y: 0.33333334, z: 0.33333334}
      - serializedVersion: 3
        time: 1.9583333
        value: {x: 1, y: 1, z: 1}
        inSlope: {x: 0, y: 0, z: 0}
        outSlope: {x: 0, y: 0, z: 0}
        tangentMode: 0
        weightedMode: 0
        inWeight: {x: 0.33333334, y: 0.33333334, z: 0.33333334}
        outWeight: {x: 0.33333334, y: 0.33333334, z: 0.33333334}
      m_PreInfinity: 2
      m_PostInfinity: 2
      m_RotationOrder: 4
    path: World_Ctrl/Root/Head_01/R_Clavicle/R_Shoulder/R_Elbow/R_Fruit_03/R_Fruit_01
      1/R_Fruit_03 2
  - curve:
      serializedVersion: 2
      m_Curve:
      - serializedVersion: 3
        time: 0
        value: {x: 1, y: 1, z: 1}
        inSlope: {x: 0, y: 0, z: 0}
        outSlope: {x: 0, y: 0, z: 0}
        tangentMode: 0
        weightedMode: 0
        inWeight: {x: 0.33333334, y: 0.33333334, z: 0.33333334}
        outWeight: {x: 0.33333334, y: 0.33333334, z: 0.33333334}
      - serializedVersion: 3
        time: 1.9583333
        value: {x: 1, y: 1, z: 1}
        inSlope: {x: 0, y: 0, z: 0}
        outSlope: {x: 0, y: 0, z: 0}
        tangentMode: 0
        weightedMode: 0
        inWeight: {x: 0.33333334, y: 0.33333334, z: 0.33333334}
        outWeight: {x: 0.33333334, y: 0.33333334, z: 0.33333334}
      m_PreInfinity: 2
      m_PostInfinity: 2
      m_RotationOrder: 4
    path: World_Ctrl/Root/Head_01/R_Clavicle/R_Shoulder/R_Fruit_01/R_Fruit_03 1/R_Fruit_01
      2
  m_FloatCurves: []
  m_PPtrCurves: []
  m_SampleRate: 24
  m_WrapMode: 0
  m_Bounds:
    m_Center: {x: 0, y: 0, z: 0}
    m_Extent: {x: 0, y: 0, z: 0}
  m_ClipBindingConstant:
    genericBindings: []
    pptrCurveMapping: []
  m_AnimationClipSettings:
    serializedVersion: 2
    m_AdditiveReferencePoseClip: {fileID: 0}
    m_AdditiveReferencePoseTime: 0
    m_StartTime: 0
    m_StopTime: 1.9583333
    m_OrientationOffsetY: 0
    m_Level: 0
    m_CycleOffset: 0
    m_HasAdditiveReferencePose: 0
    m_LoopTime: 1
    m_LoopBlend: 0
    m_LoopBlendOrientation: 0
    m_LoopBlendPositionY: 0
    m_LoopBlendPositionXZ: 0
    m_KeepOriginalOrientation: 0
    m_KeepOriginalPositionY: 1
    m_KeepOriginalPositionXZ: 0
    m_HeightFromFeet: 0
    m_Mirror: 0
  m_EditorCurves: []
  m_EulerEditorCurves: []
  m_HasGenericRootTransform: 0
  m_HasMotionFloatCurves: 0
  m_Events: []
